1. 07/08/16 12:27:00 (/MySQL/Connection.php) INFO > [localhost - MySQL] Querying: SELECT * FROM Properties ;
2. 07/08/16 05:27:00 (/MySQL/Connection.php) INFO > [localhost - MySQL] Querying: SELECT * FROM Services ;
3. 07/08/16 12:27:02 (/MySQL/Connection.php) INFO > [localhost - MySQL] Querying: SELECT * FROM Properties ;
4. 07/08/16 12:27:02 (/MySQL/Connection.php) INFO > [localhost - MySQL] Querying: SELECT * FROM Properties ;
5. 07/08/16 12:27:04 (/MySQL/Connection.php) INFO > [localhost - MySQL] Querying: SELECT * FROM Properties ;
6. 07/08/16 05:27:04 (/MySQL/Connection.php) INFO > [localhost - MySQL] Querying: SELECT * FROM User WHERE Name = 'admin' AND Password = 'admin' ;
7. 07/08/16 12:27:04 (/MySQL/Connection.php) INFO > [localhost - MySQL] Querying: SELECT * FROM Properties ;
8. 07/08/16 05:27:04 (/MySQL/Connection.php) INFO > [localhost - MySQL] Querying: SELECT * FROM User WHERE Name = 'admin' AND Password = 'admin' ;
9. 07/08/16 05:27:04 (/MySQL/Connection.php) INFO > [localhost - MySQL] Querying: SELECT * FROM User WHERE Id = 2 ;
10. 07/08/16 05:27:04 (/MySQL/Connection.php) INFO > [localhost - MySQL] Querying: SELECT * FROM User WHERE Id = 2 ;
11. 07/08/16 12:27:08 (/MySQL/Connection.php) INFO > [localhost - MySQL] Querying: SELECT * FROM Properties ;
12. 07/08/16 05:27:08 (/MySQL/Connection.php) INFO > [localhost - MySQL] Querying: SELECT * FROM Services ;
13. 07/08/16 12:37:37 (/MySQL/Connection.php) INFO > [localhost - MySQL] Querying: SELECT * FROM Properties ;
14. 07/08/16 12:38:01 (/MySQL/Connection.php) INFO > [localhost - MySQL] Querying: SELECT * FROM Properties ;
15. 07/08/16 05:38:01 (/MySQL/Connection.php) INFO > [localhost - MySQL] Querying: SELECT * FROM Services ;
16. 07/08/16 12:38:15 (/MySQL/Connection.php) INFO > [localhost - MySQL] Querying: SELECT * FROM Properties ;
17. 07/08/16 05:38:15 (/MySQL/Connection.php) INFO > [localhost - MySQL] Querying: SELECT * FROM Services ;
18. 07/08/16 12:38:17 (/MySQL/Connection.php) INFO > [localhost - MySQL] Querying: SELECT * FROM Properties ;
19. 07/08/16 05:38:17 (/MySQL/Connection.php) INFO > [localhost - MySQL] Querying: SELECT * FROM Services ;
20. 07/08/16 12:38:18 (/MySQL/Connection.php) INFO > [localhost - MySQL] Querying: SELECT * FROM Properties ;
21. 07/08/16 05:38:18 (/MySQL/Connection.php) INFO > [localhost - MySQL] Querying: SELECT * FROM Services ;
22. 07/08/16 12:38:29 (/MySQL/Connection.php) INFO > [localhost - MySQL] Querying: SELECT * FROM Properties ;
23. 07/08/16 05:38:29 (/MySQL/Connection.php) INFO > [localhost - MySQL] Querying: SELECT * FROM Services ;
24. 07/08/16 12:38:31 (/MySQL/Connection.php) INFO > [localhost - MySQL] Querying: SELECT * FROM Properties ;
25. 07/08/16 05:38:31 (/MySQL/Connection.php) INFO > [localhost - MySQL] Querying: SELECT * FROM Services ;
26. 07/08/16 12:52:54 (/MySQL/Connection.php) INFO > [localhost - MySQL] Querying: SELECT * FROM Properties ;
27. 07/08/16 05:52:54 (/MySQL/Connection.php) INFO > [localhost - MySQL] Querying: SELECT * FROM Services ;
28. 07/08/16 12:53:36 (/MySQL/Connection.php) INFO > [localhost - MySQL] Querying: SELECT * FROM Properties ;
29. 07/08/16 05:53:36 (/MySQL/Connection.php) INFO > [localhost - MySQL] Querying: SELECT * FROM Services ;
30. 07/08/16 13:00:57 (/MySQL/Connection.php) INFO > [localhost - MySQL] Querying: SELECT * FROM Properties ;
31. 07/08/16 06:00:57 (/MySQL/Connection.php) INFO > [localhost - MySQL] Querying: SELECT * FROM Services ;
32. 07/08/16 13:02:04 (/MySQL/Connection.php) INFO > [localhost - MySQL] Querying: SELECT * FROM Properties ;
33. 07/08/16 06:02:04 (/MySQL/Connection.php) INFO > [localhost - MySQL] Querying: SELECT * FROM Services ;
34. 07/08/16 13:04:22 (/MySQL/Connection.php) INFO > [localhost - MySQL] Querying: SELECT * FROM Properties ;
35. 07/08/16 06:04:22 (/MySQL/Connection.php) INFO > [localhost - MySQL] Querying: SELECT * FROM Services ;
36. 07/08/16 15:18:03 (/MySQL/Connection.php) INFO > [localhost - MySQL] Querying: SELECT * FROM Properties ;
37. 07/08/16 08:18:03 (/MySQL/Connection.php) INFO > [localhost - MySQL] Querying: SELECT * FROM Services ;
38. 08/08/16 21:56:02 (/MySQL/Connection.php) INFO > [localhost - MySQL] Querying: SELECT * FROM Properties ;
39. 08/08/16 14:56:03 (/MySQL/Connection.php) INFO > [localhost - MySQL] Querying: SELECT * FROM Services ;
40. 08/08/16 22:08:23 (/MySQL/Connection.php) INFO > [localhost - MySQL] Querying: SELECT * FROM Properties ;
41. 08/08/16 22:08:23 (/MySQL/Connection.php) INFO > [localhost - MySQL] Querying: SELECT * FROM Properties ;
42. 08/08/16 22:09:35 (/MySQL/Connection.php) INFO > [localhost - MySQL] Querying: SELECT * FROM Properties ;
43. 08/08/16 15:09:35 (/MySQL/Connection.php) INFO > [localhost - MySQL] Querying: SELECT * FROM Services ;
44. 08/08/16 22:09:37 (/MySQL/Connection.php) INFO > [localhost - MySQL] Querying: SELECT * FROM Properties ;
45. 08/08/16 22:09:37 (/MySQL/Connection.php) INFO > [localhost - MySQL] Querying: SELECT * FROM Properties ;
46. 09/08/16 09:01:16 (/MySQL/Connection.php) INFO > [localhost - MySQL] Querying: SELECT * FROM Properties ;
47. 09/08/16 09:07:30 (/MySQL/Connection.php) INFO > [localhost - MySQL] Querying: SELECT * FROM Properties ;
48. 09/08/16 02:07:30 (/MySQL/Connection.php) INFO > [localhost - MySQL] Querying: SELECT * FROM User WHERE Name = 'admin' AND Password = 'admin' ;
49. 09/08/16 09:07:31 (/MySQL/Connection.php) INFO > [localhost - MySQL] Querying: SELECT * FROM Properties ;
50. 09/08/16 02:07:31 (/MySQL/Connection.php) INFO > [localhost - MySQL] Querying: SELECT * FROM User WHERE Name = 'admin' AND Password = 'admin' ;
51. 09/08/16 02:07:31 (/MySQL/Connection.php) INFO > [localhost - MySQL] Querying: SELECT * FROM User WHERE Id = 2 ;
52. 09/08/16 02:07:31 (/MySQL/Connection.php) INFO > [localhost - MySQL] Querying: SELECT * FROM User WHERE Id = 2 ;
53. 15/08/16 14:18:29 (/MySQL/Connection.php) INFO > [localhost - MySQL] Querying: SELECT * FROM Properties ;
54. 15/08/16 07:18:30 (/MySQL/Connection.php) INFO > [localhost - MySQL] Querying: SELECT * FROM Services ;
55. 15/08/16 16:44:16 (/MySQL/Connection.php) INFO > [localhost - MySQL] Querying: SELECT * FROM Properties ;
56. 15/08/16 09:44:17 (/MySQL/Connection.php) INFO > [localhost - MySQL] Querying: SELECT * FROM Services ;
57. 15/08/16 16:51:15 (/MySQL/Connection.php) INFO > [localhost - MySQL] Querying: SELECT * FROM Properties ;
58. 15/08/16 16:51:15 (/MySQL/Connection.php) INFO > [localhost - MySQL] Querying: SELECT * FROM Properties ;
59. 15/08/16 21:17:39 (/MySQL/Connection.php) INFO > [localhost - MySQL] Querying: SELECT * FROM Properties ;
60. 15/08/16 21:17:39 (/MySQL/Connection.php) INFO > [localhost - MySQL] Querying: SELECT * FROM Properties ;
61. 15/08/16 21:17:41 (/MySQL/Connection.php) INFO > [localhost - MySQL] Querying: SELECT * FROM Properties ;
62. 15/08/16 14:17:41 (/MySQL/Connection.php) INFO > [localhost - MySQL] Querying: SELECT * FROM User WHERE Name = 'admin' AND Password = 'admin' ;
63. 15/08/16 21:17:41 (/MySQL/Connection.php) INFO > [localhost - MySQL] Querying: SELECT * FROM Properties ;
64. 15/08/16 14:17:41 (/MySQL/Connection.php) INFO > [localhost - MySQL] Querying: SELECT * FROM User WHERE Name = 'admin' AND Password = 'admin' ;
65. 15/08/16 14:17:41 (/MySQL/Connection.php) INFO > [localhost - MySQL] Querying: SELECT * FROM User WHERE Id = 2 ;
66. 15/08/16 14:17:41 (/MySQL/Connection.php) INFO > [localhost - MySQL] Querying: SELECT * FROM User WHERE Id = 2 ;
67. 15/08/16 21:17:43 (/MySQL/Connection.php) INFO > [localhost - MySQL] Querying: SELECT * FROM Properties ;
68. 15/08/16 14:17:43 (/MySQL/Connection.php) INFO > [localhost - MySQL] Querying: SELECT * FROM User WHERE Name = 'admin' AND Password = 'admin' ;
69. 15/08/16 14:17:43 (/MySQL/Connection.php) INFO > [localhost - MySQL] Querying: SELECT * FROM Properties ;
70. 15/08/16 21:17:44 (/MySQL/Connection.php) INFO > [localhost - MySQL] Querying: SELECT * FROM Properties ;
71. 15/08/16 14:17:44 (/MySQL/Connection.php) INFO > [localhost - MySQL] Querying: SELECT * FROM User WHERE Name = 'admin' AND Password = 'admin' ;
72. 15/08/16 14:17:44 (/MySQL/Connection.php) INFO > [localhost - MySQL] Querying: SELECT * FROM Properties ;
73. 15/08/16 21:17:45 (/MySQL/Connection.php) INFO > [localhost - MySQL] Querying: SELECT * FROM Properties ;
74. 15/08/16 14:17:45 (/MySQL/Connection.php) INFO > [localhost - MySQL] Querying: SELECT * FROM User WHERE Name = 'admin' AND Password = 'admin' ;
75. 15/08/16 14:17:45 (/MySQL/Connection.php) INFO > [localhost - MySQL] Querying: SELECT * FROM Services ;
76. 16/08/16 09:38:58 (/MySQL/Connection.php) INFO > [localhost - MySQL] Querying: SELECT * FROM Properties ;
77. 16/08/16 09:38:58 (/MySQL/Connection.php) INFO > [localhost - MySQL] Querying: SELECT * FROM Properties ;
78. 16/08/16 09:39:01 (/MySQL/Connection.php) INFO > [localhost - MySQL] Querying: SELECT * FROM Properties ;
79. 17/08/16 21:50:37 (/MySQL/Connection.php) INFO > [localhost - MySQL] Querying: SELECT * FROM Properties ;
80. 17/08/16 21:50:37 (/MySQL/Connection.php) INFO > [localhost - MySQL] Querying: SELECT * FROM Properties ;
81. 17/08/16 21:50:40 (/MySQL/Connection.php) INFO > [localhost - MySQL] Querying: SELECT * FROM Properties ;
82. 17/08/16 14:50:40 (/MySQL/Connection.php) INFO > [localhost - MySQL] Querying: SELECT * FROM User WHERE Name = 'admin' AND Password = 'admin' ;
83. 17/08/16 21:50:40 (/MySQL/Connection.php) INFO > [localhost - MySQL] Querying: SELECT * FROM Properties ;
84. 17/08/16 14:50:40 (/MySQL/Connection.php) INFO > [localhost - MySQL] Querying: SELECT * FROM User WHERE Name = 'admin' AND Password = 'admin' ;
85. 17/08/16 14:50:40 (/MySQL/Connection.php) INFO > [localhost - MySQL] Querying: SELECT * FROM User WHERE Id = 2 ;
86. 17/08/16 14:50:40 (/MySQL/Connection.php) INFO > [localhost - MySQL] Querying: SELECT * FROM User WHERE Id = 2 ;
87. 17/08/16 21:50:44 (/MySQL/Connection.php) INFO > [localhost - MySQL] Querying: SELECT * FROM Properties ;
88. 17/08/16 14:50:44 (/MySQL/Connection.php) INFO > [localhost - MySQL] Querying: SELECT * FROM User WHERE Name = 'admin' AND Password = 'admin' ;
89. 17/08/16 14:50:44 (/MySQL/Connection.php) INFO > [localhost - MySQL] Querying: SELECT * FROM Services ;
90. 17/08/16 21:50:45 (/MySQL/Connection.php) INFO > [localhost - MySQL] Querying: SELECT * FROM Properties ;
91. 17/08/16 14:50:45 (/MySQL/Connection.php) INFO > [localhost - MySQL] Querying: SELECT * FROM User WHERE Name = 'admin' AND Password = 'admin' ;
92. 17/08/16 14:50:45 (/MySQL/Connection.php) INFO > [localhost - MySQL] Querying: SELECT * FROM Properties ;
93. 17/08/16 21:50:47 (/MySQL/Connection.php) INFO > [localhost - MySQL] Querying: SELECT * FROM Properties ;
94. 17/08/16 14:50:47 (/MySQL/Connection.php) INFO > [localhost - MySQL] Querying: SELECT * FROM User WHERE Name = 'admin' AND Password = 'admin' ;
95. 17/08/16 14:50:47 (/MySQL/Connection.php) INFO > [localhost - MySQL] Querying: SELECT * FROM User WHERE Id = 2 ;
96. 17/08/16 14:50:47 (/MySQL/Connection.php) INFO > [localhost - MySQL] Querying: SELECT * FROM User WHERE Id = 2 ;
97. 17/08/16 21:51:16 (/MySQL/Connection.php) INFO > [localhost - MySQL] Querying: SELECT * FROM Properties ;
98. 17/08/16 14:51:16 (/MySQL/Connection.php) INFO > [localhost - MySQL] Querying: SELECT * FROM User WHERE Name = 'admin' AND Password = 'admin' ;
99. 17/08/16 14:51:16 (/MySQL/Connection.php) INFO > [localhost - MySQL] Querying: SELECT * FROM User WHERE Id = 2 ;
100. 17/08/16 14:51:16 (/MySQL/Connection.php) INFO > [localhost - MySQL] Querying: SELECT * FROM User WHERE Id = 2 ;
101. 17/08/16 21:51:30 (/MySQL/Connection.php) INFO > [localhost - MySQL] Querying: SELECT * FROM Properties ;
102. 17/08/16 14:51:30 (/MySQL/Connection.php) INFO > [localhost - MySQL] Querying: SELECT * FROM User WHERE Name = 'admin' AND Password = 'admin' ;
103. 17/08/16 14:51:30 (/MySQL/Connection.php) INFO > [localhost - MySQL] Querying: SELECT * FROM User WHERE Id = 2 ;
104. 17/08/16 14:51:30 (/MySQL/Connection.php) INFO > [localhost - MySQL] Querying: SELECT * FROM User WHERE Id = 2 ;
105. 17/08/16 21:51:31 (/MySQL/Connection.php) INFO > [localhost - MySQL] Querying: SELECT * FROM Properties ;
106. 17/08/16 14:51:31 (/MySQL/Connection.php) INFO > [localhost - MySQL] Querying: SELECT * FROM User WHERE Name = 'admin' AND Password = 'admin' ;
107. 17/08/16 14:51:31 (/MySQL/Connection.php) INFO > [localhost - MySQL] Querying: SELECT * FROM User WHERE Id = 2 ;
108. 17/08/16 14:51:31 (/MySQL/Connection.php) INFO > [localhost - MySQL] Querying: SELECT * FROM User WHERE Id = 2 ;
109. 17/08/16 21:51:32 (/MySQL/Connection.php) INFO > [localhost - MySQL] Querying: SELECT * FROM Properties ;
110. 17/08/16 14:51:32 (/MySQL/Connection.php) INFO > [localhost - MySQL] Querying: SELECT * FROM User WHERE Name = 'admin' AND Password = 'admin' ;
111. 17/08/16 14:51:32 (/MySQL/Connection.php) INFO > [localhost - MySQL] Querying: SELECT * FROM User WHERE Id = 2 ;
112. 17/08/16 14:51:32 (/MySQL/Connection.php) INFO > [localhost - MySQL] Querying: SELECT * FROM User WHERE Id = 2 ;
113. 17/08/16 21:51:49 (/MySQL/Connection.php) INFO > [localhost - MySQL] Querying: SELECT * FROM Properties ;
114. 17/08/16 14:51:49 (/MySQL/Connection.php) INFO > [localhost - MySQL] Querying: SELECT * FROM User WHERE Name = 'admin' AND Password = 'admin' ;
115. 17/08/16 14:51:49 (/MySQL/Connection.php) INFO > [localhost - MySQL] Querying: SELECT * FROM User WHERE Id = 2 ;
116. 17/08/16 14:51:49 (/MySQL/Connection.php) INFO > [localhost - MySQL] Querying: SELECT * FROM User WHERE Id = 2 ;
117. 17/08/16 21:51:58 (/MySQL/Connection.php) INFO > [localhost - MySQL] Querying: SELECT * FROM Properties ;
118. 17/08/16 14:51:58 (/MySQL/Connection.php) INFO > [localhost - MySQL] Querying: SELECT * FROM User WHERE Name = 'admin' AND Password = 'admin' ;
119. 17/08/16 14:51:58 (/MySQL/Connection.php) INFO > [localhost - MySQL] Querying: SELECT * FROM User WHERE Id = 2 ;
120. 17/08/16 14:51:59 (/MySQL/Connection.php) INFO > [localhost - MySQL] Querying: SELECT * FROM User WHERE Id = 2 ;
121. 17/08/16 21:51:59 (/MySQL/Connection.php) INFO > [localhost - MySQL] Querying: SELECT * FROM Properties ;
122. 17/08/16 14:51:59 (/MySQL/Connection.php) INFO > [localhost - MySQL] Querying: SELECT * FROM User WHERE Name = 'admin' AND Password = 'admin' ;
123. 17/08/16 14:51:59 (/MySQL/Connection.php) INFO > [localhost - MySQL] Querying: SELECT * FROM User WHERE Id = 2 ;
124. 17/08/16 14:51:59 (/MySQL/Connection.php) INFO > [localhost - MySQL] Querying: SELECT * FROM User WHERE Id = 2 ;
125. 17/08/16 21:52:05 (/MySQL/Connection.php) INFO > [localhost - MySQL] Querying: SELECT * FROM Properties ;
126. 17/08/16 14:52:05 (/MySQL/Connection.php) INFO > [localhost - MySQL] Querying: SELECT * FROM User WHERE Name = 'admin' AND Password = 'admin' ;
127. 17/08/16 14:52:05 (/MySQL/Connection.php) INFO > [localhost - MySQL] Querying: SELECT * FROM User WHERE Id = 2 ;
128. 17/08/16 14:52:05 (/MySQL/Connection.php) INFO > [localhost - MySQL] Querying: SELECT * FROM User WHERE Id = 2 ;
129. 17/08/16 21:52:38 (/MySQL/Connection.php) INFO > [localhost - MySQL] Querying: SELECT * FROM Properties ;
130. 17/08/16 21:52:38 (/MySQL/Connection.php) INFO > [localhost - MySQL] Querying: SELECT * FROM Properties ;
131. 17/08/16 21:52:40 (/MySQL/Connection.php) INFO > [localhost - MySQL] Querying: SELECT * FROM Properties ;
132. 17/08/16 14:52:40 (/MySQL/Connection.php) INFO > [localhost - MySQL] Querying: SELECT * FROM User WHERE Name = 'admin' AND Password = 'admin' ;
133. 17/08/16 21:52:40 (/MySQL/Connection.php) INFO > [localhost - MySQL] Querying: SELECT * FROM Properties ;
134. 17/08/16 14:52:40 (/MySQL/Connection.php) INFO > [localhost - MySQL] Querying: SELECT * FROM User WHERE Name = 'admin' AND Password = 'admin' ;
135. 17/08/16 14:52:40 (/MySQL/Connection.php) INFO > [localhost - MySQL] Querying: SELECT * FROM User WHERE Id = 2 ;
136. 17/08/16 14:52:40 (/MySQL/Connection.php) INFO > [localhost - MySQL] Querying: SELECT * FROM User WHERE Id = 2 ;
137. 17/08/16 21:52:42 (/MySQL/Connection.php) INFO > [localhost - MySQL] Querying: SELECT * FROM Properties ;
138. 17/08/16 14:52:42 (/MySQL/Connection.php) INFO > [localhost - MySQL] Querying: SELECT * FROM User WHERE Name = 'admin' AND Password = 'admin' ;
139. 17/08/16 14:52:42 (/MySQL/Connection.php) INFO > [localhost - MySQL] Querying: SELECT * FROM User WHERE Id = 2 ;
140. 17/08/16 14:52:42 (/MySQL/Connection.php) INFO > [localhost - MySQL] Querying: SELECT * FROM User WHERE Id = 2 ;
141. 17/08/16 21:52:46 (/MySQL/Connection.php) INFO > [localhost - MySQL] Querying: SELECT * FROM Properties ;
142. 17/08/16 21:52:46 (/MySQL/Connection.php) INFO > [localhost - MySQL] Querying: SELECT * FROM Properties ;
143. 17/08/16 21:52:46 (/MySQL/Connection.php) INFO > [localhost - MySQL] Querying: SELECT * FROM Properties ;
144. 17/08/16 14:52:46 (/MySQL/Connection.php) INFO > [localhost - MySQL] Querying: SELECT * FROM User WHERE Name = 'admin' AND Password = 'admin' ;
145. 17/08/16 14:52:46 (/MySQL/Connection.php) INFO > [localhost - MySQL] Querying: SELECT * FROM User WHERE Id = 2 ;
146. 17/08/16 14:52:46 (/MySQL/Connection.php) INFO > [localhost - MySQL] Querying: SELECT * FROM User WHERE Id = 2 ;
147. 17/08/16 21:53:16 (/MySQL/Connection.php) INFO > [localhost - MySQL] Querying: SELECT * FROM Properties ;
148. 17/08/16 14:53:16 (/MySQL/Connection.php) INFO > [localhost - MySQL] Querying: SELECT * FROM User WHERE Name = 'admin' AND Password = 'admin' ;
149. 17/08/16 14:53:16 (/MySQL/Connection.php) INFO > [localhost - MySQL] Querying: SELECT * FROM User WHERE Id = 2 ;
150. 17/08/16 14:53:16 (/MySQL/Connection.php) INFO > [localhost - MySQL] Querying: SELECT * FROM User WHERE Id = 2 ;
151. 17/08/16 21:53:17 (/MySQL/Connection.php) INFO > [localhost - MySQL] Querying: SELECT * FROM Properties ;
152. 17/08/16 14:53:17 (/MySQL/Connection.php) INFO > [localhost - MySQL] Querying: SELECT * FROM User WHERE Name = 'admin' AND Password = 'admin' ;
153. 17/08/16 14:53:17 (/MySQL/Connection.php) INFO > [localhost - MySQL] Querying: SELECT * FROM User WHERE Id = 2 ;
154. 17/08/16 14:53:17 (/MySQL/Connection.php) INFO > [localhost - MySQL] Querying: SELECT * FROM User WHERE Id = 2 ;
155. 17/08/16 21:53:19 (/MySQL/Connection.php) INFO > [localhost - MySQL] Querying: SELECT * FROM Properties ;
156. 17/08/16 14:53:19 (/MySQL/Connection.php) INFO > [localhost - MySQL] Querying: SELECT * FROM User WHERE Name = 'admin' AND Password = 'admin' ;
157. 17/08/16 14:53:19 (/MySQL/Connection.php) INFO > [localhost - MySQL] Querying: SELECT * FROM User WHERE Id = 2 ;
158. 17/08/16 14:53:19 (/MySQL/Connection.php) INFO > [localhost - MySQL] Querying: SELECT * FROM User WHERE Id = 2 ;
159. 17/08/16 21:53:38 (/MySQL/Connection.php) INFO > [localhost - MySQL] Querying: SELECT * FROM Properties ;
160. 17/08/16 14:53:38 (/MySQL/Connection.php) INFO > [localhost - MySQL] Querying: SELECT * FROM User WHERE Name = 'admin' AND Password = 'admin' ;
161. 17/08/16 14:53:38 (/MySQL/Connection.php) INFO > [localhost - MySQL] Querying: SELECT * FROM User WHERE Id = 2 ;
162. 17/08/16 14:53:38 (/MySQL/Connection.php) INFO > [localhost - MySQL] Querying: SELECT * FROM User WHERE Id = 2 ;
163. 17/08/16 21:53:41 (/MySQL/Connection.php) INFO > [localhost - MySQL] Querying: SELECT * FROM Properties ;
164. 17/08/16 14:53:41 (/MySQL/Connection.php) INFO > [localhost - MySQL] Querying: SELECT * FROM User WHERE Name = 'admin' AND Password = 'admin' ;
165. 17/08/16 14:53:41 (/MySQL/Connection.php) INFO > [localhost - MySQL] Querying: SELECT * FROM User WHERE Id = 2 ;
166. 17/08/16 14:53:41 (/MySQL/Connection.php) INFO > [localhost - MySQL] Querying: SELECT * FROM User WHERE Id = 2 ;
167. 17/08/16 21:53:42 (/MySQL/Connection.php) INFO > [localhost - MySQL] Querying: SELECT * FROM Properties ;
168. 17/08/16 14:53:42 (/MySQL/Connection.php) INFO > [localhost - MySQL] Querying: SELECT * FROM User WHERE Name = 'admin' AND Password = 'admin' ;
169. 17/08/16 14:53:42 (/MySQL/Connection.php) INFO > [localhost - MySQL] Querying: SELECT * FROM User WHERE Id = 2 ;
170. 17/08/16 14:53:42 (/MySQL/Connection.php) INFO > [localhost - MySQL] Querying: SELECT * FROM User WHERE Id = 2 ;
171. 17/08/16 21:53:44 (/MySQL/Connection.php) INFO > [localhost - MySQL] Querying: SELECT * FROM Properties ;
172. 17/08/16 14:53:44 (/MySQL/Connection.php) INFO > [localhost - MySQL] Querying: SELECT * FROM User WHERE Name = 'admin' AND Password = 'admin' ;
173. 17/08/16 14:53:44 (/MySQL/Connection.php) INFO > [localhost - MySQL] Querying: SELECT * FROM User WHERE Id = 2 ;
174. 17/08/16 14:53:44 (/MySQL/Connection.php) INFO > [localhost - MySQL] Querying: SELECT * FROM User WHERE Id = 2 ;
175. 17/08/16 21:53:53 (/MySQL/Connection.php) INFO > [localhost - MySQL] Querying: SELECT * FROM Properties ;
176. 17/08/16 14:53:53 (/MySQL/Connection.php) INFO > [localhost - MySQL] Querying: SELECT * FROM User WHERE Name = 'admin' AND Password = 'admin' ;
177. 17/08/16 14:53:53 (/MySQL/Connection.php) INFO > [localhost - MySQL] Querying: SELECT * FROM User WHERE Id = 2 ;
178. 17/08/16 14:53:53 (/MySQL/Connection.php) INFO > [localhost - MySQL] Querying: SELECT * FROM User WHERE Id = 2 ;
179. 17/08/16 21:54:27 (/MySQL/Connection.php) INFO > [localhost - MySQL] Querying: SELECT * FROM Properties ;
180. 17/08/16 14:54:27 (/MySQL/Connection.php) INFO > [localhost - MySQL] Querying: SELECT * FROM User WHERE Name = 'admin' AND Password = 'admin' ;
181. 17/08/16 14:54:27 (/MySQL/Connection.php) INFO > [localhost - MySQL] Querying: SELECT * FROM User WHERE Id = 2 ;
182. 17/08/16 14:54:27 (/MySQL/Connection.php) INFO > [localhost - MySQL] Querying: SELECT * FROM User WHERE Id = 2 ;
183. 17/08/16 21:54:30 (/MySQL/Connection.php) INFO > [localhost - MySQL] Querying: SELECT * FROM Properties ;
184. 17/08/16 14:54:30 (/MySQL/Connection.php) INFO > [localhost - MySQL] Querying: SELECT * FROM User WHERE Name = 'admin' AND Password = 'admin' ;
185. 17/08/16 14:54:30 (/MySQL/Connection.php) INFO > [localhost - MySQL] Querying: SELECT * FROM User WHERE Id = 2 ;
186. 17/08/16 14:54:30 (/MySQL/Connection.php) INFO > [localhost - MySQL] Querying: SELECT * FROM User WHERE Id = 2 ;
187. 17/08/16 21:54:31 (/MySQL/Connection.php) INFO > [localhost - MySQL] Querying: SELECT * FROM Properties ;
188. 17/08/16 14:54:31 (/MySQL/Connection.php) INFO > [localhost - MySQL] Querying: SELECT * FROM User WHERE Name = 'admin' AND Password = 'admin' ;
189. 17/08/16 14:54:31 (/MySQL/Connection.php) INFO > [localhost - MySQL] Querying: SELECT * FROM User WHERE Id = 2 ;
190. 17/08/16 14:54:31 (/MySQL/Connection.php) INFO > [localhost - MySQL] Querying: SELECT * FROM User WHERE Id = 2 ;
191. 17/08/16 21:54:38 (/MySQL/Connection.php) INFO > [localhost - MySQL] Querying: SELECT * FROM Properties ;
192. 17/08/16 14:54:38 (/MySQL/Connection.php) INFO > [localhost - MySQL] Querying: SELECT * FROM User WHERE Name = 'admin' AND Password = 'admin' ;
193. 17/08/16 14:54:38 (/MySQL/Connection.php) INFO > [localhost - MySQL] Querying: SELECT * FROM User WHERE Id = 2 ;
194. 17/08/16 14:54:38 (/MySQL/Connection.php) INFO > [localhost - MySQL] Querying: SELECT * FROM User WHERE Id = 2 ;
195. 17/08/16 21:54:40 (/MySQL/Connection.php) INFO > [localhost - MySQL] Querying: SELECT * FROM Properties ;
196. 17/08/16 14:54:40 (/MySQL/Connection.php) INFO > [localhost - MySQL] Querying: SELECT * FROM User WHERE Name = 'admin' AND Password = 'admin' ;
197. 17/08/16 14:54:40 (/MySQL/Connection.php) INFO > [localhost - MySQL] Querying: SELECT * FROM Properties ;
198. 17/08/16 21:54:40 (/MySQL/Connection.php) INFO > [localhost - MySQL] Querying: SELECT * FROM Properties ;
199. 17/08/16 14:54:40 (/MySQL/Connection.php) INFO > [localhost - MySQL] Querying: SELECT * FROM User WHERE Name = 'admin' AND Password = 'admin' ;
200. 17/08/16 14:54:40 (/MySQL/Connection.php) INFO > [localhost - MySQL] Querying: SELECT * FROM Services ;
201. 17/08/16 21:54:42 (/MySQL/Connection.php) INFO > [localhost - MySQL] Querying: SELECT * FROM Properties ;
202. 17/08/16 14:54:42 (/MySQL/Connection.php) INFO > [localhost - MySQL] Querying: SELECT * FROM User WHERE Name = 'admin' AND Password = 'admin' ;
203. 17/08/16 14:54:42 (/MySQL/Connection.php) INFO > [localhost - MySQL] Querying: SELECT * FROM Services ;
204. 17/08/16 21:54:45 (/MySQL/Connection.php) INFO > [localhost - MySQL] Querying: SELECT * FROM Properties ;
205. 17/08/16 21:54:45 (/MySQL/Connection.php) INFO > [localhost - MySQL] Querying: SELECT * FROM Properties ;
206. 17/08/16 21:54:50 (/MySQL/Connection.php) INFO > [localhost - MySQL] Querying: SELECT * FROM Properties ;
207. 17/08/16 21:54:50 (/MySQL/Connection.php) INFO > [localhost - MySQL] Querying: SELECT * FROM Properties ;
208. 17/08/16 21:54:54 (/MySQL/Connection.php) INFO > [localhost - MySQL] Querying: SELECT * FROM Properties ;
209. 17/08/16 14:54:54 (/MySQL/Connection.php) INFO > [localhost - MySQL] Querying: SELECT * FROM User WHERE Name = 'admin' AND Password = 'admin' ;
210. 17/08/16 21:54:54 (/MySQL/Connection.php) INFO > [localhost - MySQL] Querying: SELECT * FROM Properties ;
211. 17/08/16 14:54:54 (/MySQL/Connection.php) INFO > [localhost - MySQL] Querying: SELECT * FROM User WHERE Name = 'admin' AND Password = 'admin' ;
212. 17/08/16 14:54:54 (/MySQL/Connection.php) INFO > [localhost - MySQL] Querying: SELECT * FROM User WHERE Id = 2 ;
213. 17/08/16 14:54:54 (/MySQL/Connection.php) INFO > [localhost - MySQL] Querying: SELECT * FROM User WHERE Id = 2 ;
214. 17/08/16 21:54:56 (/MySQL/Connection.php) INFO > [localhost - MySQL] Querying: SELECT * FROM Properties ;
215. 17/08/16 14:54:56 (/MySQL/Connection.php) INFO > [localhost - MySQL] Querying: SELECT * FROM User WHERE Name = 'admin' AND Password = 'admin' ;
216. 17/08/16 14:54:56 (/MySQL/Connection.php) INFO > [localhost - MySQL] Querying: SELECT * FROM Properties ;
217. 17/08/16 21:55:02 (/MySQL/Connection.php) INFO > [localhost - MySQL] Querying: SELECT * FROM Properties ;
218. 17/08/16 14:55:02 (/MySQL/Connection.php) INFO > [localhost - MySQL] Querying: SELECT * FROM User WHERE Name = 'admin' AND Password = 'admin' ;
219. 17/08/16 21:55:02 (/MySQL/Connection.php) INFO > [localhost - MySQL] Querying: SELECT * FROM Properties ;
220. 17/08/16 14:55:02 (/MySQL/Connection.php) INFO > [localhost - MySQL] Querying: SELECT * FROM User WHERE Name = 'admin' AND Password = 'admin' ;
221. 17/08/16 14:55:02 (/MySQL/Connection.php) INFO > [localhost - MySQL] Querying: SELECT * FROM User WHERE Id = 2 ;
222. 17/08/16 14:55:02 (/MySQL/Connection.php) INFO > [localhost - MySQL] Querying: SELECT * FROM User WHERE Id = 2 ;
223. 17/08/16 21:55:03 (/MySQL/Connection.php) INFO > [localhost - MySQL] Querying: SELECT * FROM Properties ;
224. 17/08/16 14:55:03 (/MySQL/Connection.php) INFO > [localhost - MySQL] Querying: SELECT * FROM User WHERE Name = 'admin' AND Password = 'admin' ;
225. 17/08/16 14:55:03 (/MySQL/Connection.php) INFO > [localhost - MySQL] Querying: SELECT * FROM Properties ;
226. 17/08/16 21:55:24 (/MySQL/Connection.php) INFO > [localhost - MySQL] Querying: SELECT * FROM Properties ;
227. 17/08/16 14:55:24 (/MySQL/Connection.php) INFO > [localhost - MySQL] Querying: SELECT * FROM User WHERE Name = 'admin' AND Password = 'admin' ;
228. 17/08/16 14:55:24 (/MySQL/Connection.php) INFO > [localhost - MySQL] Querying: SELECT * FROM Properties ;
229. 17/08/16 21:55:26 (/MySQL/Connection.php) INFO > [localhost - MySQL] Querying: SELECT * FROM Properties ;
230. 17/08/16 14:55:26 (/MySQL/Connection.php) INFO > [localhost - MySQL] Querying: SELECT * FROM User WHERE Name = 'admin' AND Password = 'admin' ;
231. 17/08/16 14:55:26 (/MySQL/Connection.php) INFO > [localhost - MySQL] Querying: SELECT * FROM Properties ;
232. 17/08/16 21:55:26 (/MySQL/Connection.php) INFO > [localhost - MySQL] Querying: SELECT * FROM Properties ;
233. 17/08/16 14:55:26 (/MySQL/Connection.php) INFO > [localhost - MySQL] Querying: SELECT * FROM User WHERE Name = 'admin' AND Password = 'admin' ;
234. 17/08/16 14:55:26 (/MySQL/Connection.php) INFO > [localhost - MySQL] Querying: SELECT * FROM Properties ;
235. 17/08/16 21:55:27 (/MySQL/Connection.php) INFO > [localhost - MySQL] Querying: SELECT * FROM Properties ;
236. 17/08/16 14:55:27 (/MySQL/Connection.php) INFO > [localhost - MySQL] Querying: SELECT * FROM User WHERE Name = 'admin' AND Password = 'admin' ;
237. 17/08/16 14:55:27 (/MySQL/Connection.php) INFO > [localhost - MySQL] Querying: SELECT * FROM Properties ;
238. 17/08/16 21:55:28 (/MySQL/Connection.php) INFO > [localhost - MySQL] Querying: SELECT * FROM Properties ;
239. 17/08/16 14:55:28 (/MySQL/Connection.php) INFO > [localhost - MySQL] Querying: SELECT * FROM User WHERE Name = 'admin' AND Password = 'admin' ;
240. 17/08/16 14:55:28 (/MySQL/Connection.php) INFO > [localhost - MySQL] Querying: SELECT * FROM Properties ;
241. 17/08/16 21:55:28 (/MySQL/Connection.php) INFO > [localhost - MySQL] Querying: SELECT * FROM Properties ;
242. 17/08/16 14:55:28 (/MySQL/Connection.php) INFO > [localhost - MySQL] Querying: SELECT * FROM User WHERE Name = 'admin' AND Password = 'admin' ;
243. 17/08/16 14:55:28 (/MySQL/Connection.php) INFO > [localhost - MySQL] Querying: SELECT * FROM Properties ;
244. 17/08/16 21:55:40 (/MySQL/Connection.php) INFO > [localhost - MySQL] Querying: SELECT * FROM Properties ;
245. 17/08/16 14:55:40 (/MySQL/Connection.php) INFO > [localhost - MySQL] Querying: SELECT * FROM User WHERE Name = 'admin' AND Password = 'admin' ;
246. 17/08/16 14:55:40 (/MySQL/Connection.php) INFO > [localhost - MySQL] Querying: SELECT * FROM Properties ;
247. 17/08/16 21:55:41 (/MySQL/Connection.php) INFO > [localhost - MySQL] Querying: SELECT * FROM Properties ;
248. 17/08/16 14:55:41 (/MySQL/Connection.php) INFO > [localhost - MySQL] Querying: SELECT * FROM User WHERE Name = 'admin' AND Password = 'admin' ;
249. 17/08/16 14:55:41 (/MySQL/Connection.php) INFO > [localhost - MySQL] Querying: SELECT * FROM Properties ;
250. 17/08/16 21:55:41 (/MySQL/Connection.php) INFO > [localhost - MySQL] Querying: SELECT * FROM Properties ;
251. 17/08/16 14:55:41 (/MySQL/Connection.php) INFO > [localhost - MySQL] Querying: SELECT * FROM User WHERE Name = 'admin' AND Password = 'admin' ;
252. 17/08/16 14:55:41 (/MySQL/Connection.php) INFO > [localhost - MySQL] Querying: SELECT * FROM Properties ;
253. 17/08/16 21:55:45 (/MySQL/Connection.php) INFO > [localhost - MySQL] Querying: SELECT * FROM Properties ;
254. 17/08/16 14:55:45 (/MySQL/Connection.php) INFO > [localhost - MySQL] Querying: SELECT * FROM User WHERE Name = 'admin' AND Password = 'admin' ;
255. 17/08/16 14:55:45 (/MySQL/Connection.php) INFO > [localhost - MySQL] Querying: SELECT * FROM Properties ;
256. 17/08/16 21:55:46 (/MySQL/Connection.php) INFO > [localhost - MySQL] Querying: SELECT * FROM Properties ;
257. 17/08/16 14:55:46 (/MySQL/Connection.php) INFO > [localhost - MySQL] Querying: SELECT * FROM User WHERE Name = 'admin' AND Password = 'admin' ;
258. 17/08/16 14:55:46 (/MySQL/Connection.php) INFO > [localhost - MySQL] Querying: SELECT * FROM Properties ;
259. 17/08/16 21:56:07 (/MySQL/Connection.php) INFO > [localhost - MySQL] Querying: SELECT * FROM Properties ;
260. 17/08/16 14:56:07 (/MySQL/Connection.php) INFO > [localhost - MySQL] Querying: SELECT * FROM User WHERE Name = 'admin' AND Password = 'admin' ;
261. 17/08/16 14:56:07 (/MySQL/Connection.php) INFO > [localhost - MySQL] Querying: SELECT * FROM Properties ;
262. 17/08/16 21:56:08 (/MySQL/Connection.php) INFO > [localhost - MySQL] Querying: SELECT * FROM Properties ;
263. 17/08/16 14:56:08 (/MySQL/Connection.php) INFO > [localhost - MySQL] Querying: SELECT * FROM User WHERE Name = 'admin' AND Password = 'admin' ;
264. 17/08/16 14:56:08 (/MySQL/Connection.php) INFO > [localhost - MySQL] Querying: SELECT * FROM Properties ;
265. 17/08/16 21:56:08 (/MySQL/Connection.php) INFO > [localhost - MySQL] Querying: SELECT * FROM Properties ;
266. 17/08/16 14:56:08 (/MySQL/Connection.php) INFO > [localhost - MySQL] Querying: SELECT * FROM User WHERE Name = 'admin' AND Password = 'admin' ;
267. 17/08/16 14:56:08 (/MySQL/Connection.php) INFO > [localhost - MySQL] Querying: SELECT * FROM Properties ;
268. 17/08/16 21:57:45 (/MySQL/Connection.php) INFO > [localhost - MySQL] Querying: SELECT * FROM Properties ;
269. 17/08/16 14:57:45 (/MySQL/Connection.php) INFO > [localhost - MySQL] Querying: SELECT * FROM User WHERE Name = 'admin' AND Password = 'admin' ;
270. 17/08/16 14:57:45 (/MySQL/Connection.php) INFO > [localhost - MySQL] Querying: SELECT * FROM Properties ;
271. 17/08/16 21:57:46 (/MySQL/Connection.php) INFO > [localhost - MySQL] Querying: SELECT * FROM Properties ;
272. 17/08/16 14:57:46 (/MySQL/Connection.php) INFO > [localhost - MySQL] Querying: SELECT * FROM User WHERE Name = 'admin' AND Password = 'admin' ;
273. 17/08/16 14:57:46 (/MySQL/Connection.php) INFO > [localhost - MySQL] Querying: SELECT * FROM Properties ;
274. 17/08/16 23:03:36 (/MySQL/Connection.php) INFO > [localhost - MySQL] Querying: SELECT * FROM Properties ;
275. 17/08/16 16:03:36 (/MySQL/Connection.php) INFO > [localhost - MySQL] Querying: SELECT * FROM Services ;
276. 17/08/16 23:03:58 (/MySQL/Connection.php) INFO > [localhost - MySQL] Querying: SELECT * FROM Properties ;
277. 17/08/16 16:03:58 (/MySQL/Connection.php) INFO > [localhost - MySQL] Querying: SELECT * FROM Services ;
278. 17/08/16 23:04:32 (/MySQL/Connection.php) INFO > [localhost - MySQL] Querying: SELECT * FROM Properties ;
279. 17/08/16 16:04:32 (/MySQL/Connection.php) INFO > [localhost - MySQL] Querying: SELECT * FROM Services ;
280. 17/08/16 23:05:29 (/MySQL/Connection.php) INFO > [localhost - MySQL] Querying: SELECT * FROM Properties ;
281. 17/08/16 16:05:29 (/MySQL/Connection.php) INFO > [localhost - MySQL] Querying: SELECT * FROM Services ;
282. 18/08/16 09:15:06 (/MySQL/Connection.php) INFO > [localhost - MySQL] Querying: SELECT * FROM Properties ;
283. 18/08/16 09:15:10 (/MySQL/Connection.php) INFO > [localhost - MySQL] Querying: SELECT * FROM Properties ;
284. 18/08/16 09:16:03 (/MySQL/Connection.php) INFO > [localhost - MySQL] Querying: SELECT * FROM Properties ;
285. 18/08/16 02:16:03 (/MySQL/Connection.php) INFO > [localhost - MySQL] Querying: SELECT * FROM User WHERE Name = 'admin' AND Password = 'admin' ;
286. 18/08/16 09:16:03 (/MySQL/Connection.php) INFO > [localhost - MySQL] Querying: SELECT * FROM Properties ;
287. 18/08/16 02:16:03 (/MySQL/Connection.php) INFO > [localhost - MySQL] Querying: SELECT * FROM User WHERE Name = 'admin' AND Password = 'admin' ;
288. 18/08/16 02:16:04 (/MySQL/Connection.php) INFO > [localhost - MySQL] Querying: SELECT * FROM User WHERE Id = 2 ;
289. 18/08/16 02:16:04 (/MySQL/Connection.php) INFO > [localhost - MySQL] Querying: SELECT * FROM User WHERE Id = 2 ;
290. 21/08/16 09:22:20 (/MySQL/Connection.php) INFO > [localhost - MySQL] Querying: SELECT * FROM Properties ;
291. 21/08/16 02:22:20 (/MySQL/Connection.php) INFO > [localhost - MySQL] Querying: SELECT * FROM Services ;
292. 21/08/16 09:24:49 (/MySQL/Connection.php) INFO > [localhost - MySQL] Querying: SELECT * FROM Properties ;
293. 21/08/16 02:24:49 (/MySQL/Connection.php) INFO > [localhost - MySQL] Querying: SELECT * FROM Services ;
294. 21/08/16 09:24:50 (/MySQL/Connection.php) INFO > [localhost - MySQL] Querying: SELECT * FROM Properties ;
295. 21/08/16 02:24:50 (/MySQL/Connection.php) INFO > [localhost - MySQL] Querying: SELECT * FROM Services ;
296. 21/08/16 09:25:41 (/MySQL/Connection.php) INFO > [localhost - MySQL] Querying: SELECT * FROM Properties ;
297. 21/08/16 02:25:41 (/MySQL/Connection.php) INFO > [localhost - MySQL] Querying: SELECT * FROM Services ;
298. 21/08/16 11:03:01 (/MySQL/Connection.php) INFO > [localhost - MySQL] Querying: SELECT * FROM Properties ;
299. 21/08/16 04:03:01 (/MySQL/Connection.php) INFO > [localhost - MySQL] Querying: SELECT * FROM Services ;
300. 21/08/16 11:03:38 (/MySQL/Connection.php) INFO > [localhost - MySQL] Querying: SELECT * FROM Properties ;
301. 21/08/16 04:03:38 (/MySQL/Connection.php) INFO > [localhost - MySQL] Querying: SELECT * FROM Services ;
302. 21/08/16 11:03:48 (/MySQL/Connection.php) INFO > [localhost - MySQL] Querying: SELECT * FROM Properties ;
303. 21/08/16 04:03:48 (/MySQL/Connection.php) INFO > [localhost - MySQL] Querying: SELECT * FROM Services ;
304. 21/08/16 11:04:20 (/MySQL/Connection.php) INFO > [localhost - MySQL] Querying: SELECT * FROM Properties ;
305. 21/08/16 04:04:20 (/MySQL/Connection.php) INFO > [localhost - MySQL] Querying: SELECT * FROM Services ;
306. 21/08/16 11:04:33 (/MySQL/Connection.php) INFO > [localhost - MySQL] Querying: SELECT * FROM Properties ;
307. 21/08/16 04:04:33 (/MySQL/Connection.php) INFO > [localhost - MySQL] Querying: SELECT * FROM Services ;
308. 21/08/16 11:04:43 (/MySQL/Connection.php) INFO > [localhost - MySQL] Querying: SELECT * FROM Properties ;
309. 21/08/16 04:04:44 (/MySQL/Connection.php) INFO > [localhost - MySQL] Querying: SELECT * FROM Services ;
310. 21/08/16 11:08:44 (/MySQL/Connection.php) INFO > [localhost - MySQL] Querying: SELECT * FROM Properties ;
311. 21/08/16 04:08:44 (/MySQL/Connection.php) INFO > [localhost - MySQL] Querying: SELECT * FROM Services ;
312. 21/08/16 11:09:31 (/MySQL/Connection.php) INFO > [localhost - MySQL] Querying: SELECT * FROM Properties ;
313. 21/08/16 04:09:31 (/MySQL/Connection.php) INFO > [localhost - MySQL] Querying: SELECT * FROM Services ;
314. 21/08/16 11:09:32 (/MySQL/Connection.php) INFO > [localhost - MySQL] Querying: SELECT * FROM Properties ;
315. 21/08/16 04:09:32 (/MySQL/Connection.php) INFO > [localhost - MySQL] Querying: SELECT * FROM Services ;
316. 21/08/16 11:11:02 (/MySQL/Connection.php) INFO > [localhost - MySQL] Querying: SELECT * FROM Properties ;
317. 21/08/16 04:11:02 (/MySQL/Connection.php) INFO > [localhost - MySQL] Querying: SELECT * FROM Services ;
318. 21/08/16 11:11:22 (/MySQL/Connection.php) INFO > [localhost - MySQL] Querying: SELECT * FROM Properties ;
319. 21/08/16 04:11:22 (/MySQL/Connection.php) INFO > [localhost - MySQL] Querying: SELECT * FROM Services ;
320. 21/08/16 12:03:00 (/MySQL/Connection.php) INFO > [localhost - MySQL] Querying: SELECT * FROM Properties ;
321. 21/08/16 12:03:06 (/MySQL/Connection.php) INFO > [localhost - MySQL] Querying: SELECT * FROM Properties ;
322. 21/08/16 12:03:38 (/MySQL/Connection.php) INFO > [localhost - MySQL] Querying: SELECT * FROM Properties ;
323. 21/08/16 12:03:49 (/MySQL/Connection.php) INFO > [localhost - MySQL] Querying: SELECT * FROM Properties ;
324. 21/08/16 12:04:11 (/MySQL/Connection.php) INFO > [localhost - MySQL] Querying: SELECT * FROM Properties ;
325. 21/08/16 12:04:42 (/MySQL/Connection.php) INFO > [localhost - MySQL] Querying: SELECT * FROM Properties ;
326. 21/08/16 12:05:26 (/MySQL/Connection.php) INFO > [localhost - MySQL] Querying: SELECT * FROM Properties ;
327. 21/08/16 12:05:27 (/MySQL/Connection.php) INFO > [localhost - MySQL] Querying: SELECT * FROM Properties ;
328. 21/08/16 12:05:28 (/MySQL/Connection.php) INFO > [localhost - MySQL] Querying: SELECT * FROM Properties ;
329. 21/08/16 12:05:44 (/MySQL/Connection.php) INFO > [localhost - MySQL] Querying: SELECT * FROM Properties ;
330. 21/08/16 12:05:45 (/MySQL/Connection.php) INFO > [localhost - MySQL] Querying: SELECT * FROM Properties ;
331. 21/08/16 12:05:58 (/MySQL/Connection.php) INFO > [localhost - MySQL] Querying: SELECT * FROM Properties ;
332. 21/08/16 12:05:59 (/MySQL/Connection.php) INFO > [localhost - MySQL] Querying: SELECT * FROM Properties ;
333. 21/08/16 12:07:02 (/MySQL/Connection.php) INFO > [localhost - MySQL] Querying: SELECT * FROM Properties ;
334. 21/08/16 12:07:03 (/MySQL/Connection.php) INFO > [localhost - MySQL] Querying: SELECT * FROM Properties ;
335. 21/08/16 12:07:08 (/MySQL/Connection.php) INFO > [localhost - MySQL] Querying: SELECT * FROM Properties ;
336. 21/08/16 12:07:09 (/MySQL/Connection.php) INFO > [localhost - MySQL] Querying: SELECT * FROM Properties ;
337. 21/08/16 12:07:17 (/MySQL/Connection.php) INFO > [localhost - MySQL] Querying: SELECT * FROM Properties ;
338. 21/08/16 12:07:46 (/MySQL/Connection.php) INFO > [localhost - MySQL] Querying: SELECT * FROM Properties ;
339. 21/08/16 12:08:00 (/MySQL/Connection.php) INFO > [localhost - MySQL] Querying: SELECT * FROM Properties ;
340. 21/08/16 12:08:42 (/MySQL/Connection.php) INFO > [localhost - MySQL] Querying: SELECT * FROM Properties ;
341. 21/08/16 12:08:47 (/MySQL/Connection.php) INFO > [localhost - MySQL] Querying: SELECT * FROM Properties ;
342. 21/08/16 12:08:57 (/MySQL/Connection.php) INFO > [localhost - MySQL] Querying: SELECT * FROM Properties ;
343. 21/08/16 12:09:07 (/MySQL/Connection.php) INFO > [localhost - MySQL] Querying: SELECT * FROM Properties ;
344. 21/08/16 12:09:17 (/MySQL/Connection.php) INFO > [localhost - MySQL] Querying: SELECT * FROM Properties ;
345. 21/08/16 12:09:18 (/MySQL/Connection.php) INFO > [localhost - MySQL] Querying: SELECT * FROM Properties ;
346. 21/08/16 12:09:19 (/MySQL/Connection.php) INFO > [localhost - MySQL] Querying: SELECT * FROM Properties ;
347. 21/08/16 12:09:45 (/MySQL/Connection.php) INFO > [localhost - MySQL] Querying: SELECT * FROM Properties ;
348. 21/08/16 12:09:58 (/MySQL/Connection.php) INFO > [localhost - MySQL] Querying: SELECT * FROM Properties ;
349. 21/08/16 12:10:04 (/MySQL/Connection.php) INFO > [localhost - MySQL] Querying: SELECT * FROM Properties ;
350. 21/08/16 12:10:33 (/MySQL/Connection.php) INFO > [localhost - MySQL] Querying: SELECT * FROM Properties ;
351. 21/08/16 12:12:15 (/MySQL/Connection.php) INFO > [localhost - MySQL] Querying: SELECT * FROM Properties ;
352. 21/08/16 05:12:15 (/MySQL/Connection.php) INFO > [localhost - MySQL] Querying: SELECT * FROM Services ;
353. 21/08/16 12:13:26 (/MySQL/Connection.php) INFO > [localhost - MySQL] Querying: SELECT * FROM Properties ;
354. 21/08/16 05:13:26 (/MySQL/Connection.php) INFO > [localhost - MySQL] Querying: SELECT * FROM Services ;
355. 21/08/16 12:13:35 (/MySQL/Connection.php) INFO > [localhost - MySQL] Querying: SELECT * FROM Properties ;
356. 21/08/16 05:13:35 (/MySQL/Connection.php) INFO > [localhost - MySQL] Querying: SELECT * FROM Services ;
357. 21/08/16 12:15:40 (/MySQL/Connection.php) INFO > [localhost - MySQL] Querying: SELECT * FROM Properties ;
358. 21/08/16 12:15:40 (/MySQL/Connection.php) INFO > [localhost - MySQL] Querying: SELECT * FROM Properties ;
359. 21/08/16 12:16:01 (/MySQL/Connection.php) INFO > [localhost - MySQL] Querying: SELECT * FROM Properties ;
360. 21/08/16 12:16:11 (/MySQL/Connection.php) INFO > [localhost - MySQL] Querying: SELECT * FROM Properties ;
361. 21/08/16 12:16:53 (/MySQL/Connection.php) INFO > [localhost - MySQL] Querying: SELECT * FROM Properties ;
362. 21/08/16 12:17:00 (/MySQL/Connection.php) INFO > [localhost - MySQL] Querying: SELECT * FROM Properties ;
363. 21/08/16 12:17:49 (/MySQL/Connection.php) INFO > [localhost - MySQL] Querying: SELECT * FROM Properties ;
364. 21/08/16 12:17:50 (/MySQL/Connection.php) INFO > [localhost - MySQL] Querying: SELECT * FROM Properties ;
365. 21/08/16 12:17:59 (/MySQL/Connection.php) INFO > [localhost - MySQL] Querying: SELECT * FROM Properties ;
366. 21/08/16 12:18:06 (/MySQL/Connection.php) INFO > [localhost - MySQL] Querying: SELECT * FROM Properties ;
367. 21/08/16 12:18:11 (/MySQL/Connection.php) INFO > [localhost - MySQL] Querying: SELECT * FROM Properties ;
368. 21/08/16 12:20:14 (/MySQL/Connection.php) INFO > [localhost - MySQL] Querying: SELECT * FROM Properties ;
369. 21/08/16 12:20:27 (/MySQL/Connection.php) INFO > [localhost - MySQL] Querying: SELECT * FROM Properties ;
370. 21/08/16 12:20:32 (/MySQL/Connection.php) INFO > [localhost - MySQL] Querying: SELECT * FROM Properties ;
371. 21/08/16 12:20:46 (/MySQL/Connection.php) INFO > [localhost - MySQL] Querying: SELECT * FROM Properties ;
372. 21/08/16 12:20:48 (/MySQL/Connection.php) INFO > [localhost - MySQL] Querying: SELECT * FROM Properties ;
373. 21/08/16 12:20:52 (/MySQL/Connection.php) INFO > [localhost - MySQL] Querying: SELECT * FROM Properties ;
374. 21/08/16 12:21:05 (/MySQL/Connection.php) INFO > [localhost - MySQL] Querying: SELECT * FROM Properties ;
375. 21/08/16 12:21:41 (/MySQL/Connection.php) INFO > [localhost - MySQL] Querying: SELECT * FROM Properties ;
376. 21/08/16 12:21:44 (/MySQL/Connection.php) INFO > [localhost - MySQL] Querying: SELECT * FROM Properties ;
377. 21/08/16 12:21:47 (/MySQL/Connection.php) INFO > [localhost - MySQL] Querying: SELECT * FROM Properties ;
378. 21/08/16 12:21:51 (/MySQL/Connection.php) INFO > [localhost - MySQL] Querying: SELECT * FROM Properties ;
379. 21/08/16 12:22:07 (/MySQL/Connection.php) INFO > [localhost - MySQL] Querying: SELECT * FROM Properties ;
380. 21/08/16 12:22:08 (/MySQL/Connection.php) INFO > [localhost - MySQL] Querying: SELECT * FROM Properties ;
381. 21/08/16 12:22:52 (/MySQL/Connection.php) INFO > [localhost - MySQL] Querying: SELECT * FROM Properties ;
382. 21/08/16 12:22:53 (/MySQL/Connection.php) INFO > [localhost - MySQL] Querying: SELECT * FROM Properties ;
383. 21/08/16 12:22:53 (/MySQL/Connection.php) INFO > [localhost - MySQL] Querying: SELECT * FROM Properties ;
384. 21/08/16 12:23:01 (/MySQL/Connection.php) INFO > [localhost - MySQL] Querying: SELECT * FROM Properties ;
385. 21/08/16 12:24:02 (/MySQL/Connection.php) INFO > [localhost - MySQL] Querying: SELECT * FROM Properties ;
386. 21/08/16 12:24:13 (/MySQL/Connection.php) INFO > [localhost - MySQL] Querying: SELECT * FROM Properties ;
387. 21/08/16 12:25:43 (/MySQL/Connection.php) INFO > [localhost - MySQL] Querying: SELECT * FROM Properties ;
388. 21/08/16 12:25:59 (/MySQL/Connection.php) INFO > [localhost - MySQL] Querying: SELECT * FROM Properties ;
389. 21/08/16 12:26:00 (/MySQL/Connection.php) INFO > [localhost - MySQL] Querying: SELECT * FROM Properties ;
390. 21/08/16 12:28:05 (/MySQL/Connection.php) INFO > [localhost - MySQL] Querying: SELECT * FROM Properties ;
391. 21/08/16 12:28:05 (/MySQL/Connection.php) INFO > [localhost - MySQL] Querying: SELECT * FROM Properties ;
392. 21/08/16 12:28:11 (/MySQL/Connection.php) INFO > [localhost - MySQL] Querying: SELECT * FROM Properties ;
393. 21/08/16 12:28:17 (/MySQL/Connection.php) INFO > [localhost - MySQL] Querying: SELECT * FROM Properties ;
394. 21/08/16 12:30:00 (/MySQL/Connection.php) INFO > [localhost - MySQL] Querying: SELECT * FROM Properties ;
395. 21/08/16 12:30:06 (/MySQL/Connection.php) INFO > [localhost - MySQL] Querying: SELECT * FROM Properties ;
396. 21/08/16 12:31:41 (/MySQL/Connection.php) INFO > [localhost - MySQL] Querying: SELECT * FROM Properties ;
397. 21/08/16 12:32:14 (/MySQL/Connection.php) INFO > [localhost - MySQL] Querying: SELECT * FROM Properties ;
398. 21/08/16 12:32:40 (/MySQL/Connection.php) INFO > [localhost - MySQL] Querying: SELECT * FROM Properties ;
399. 21/08/16 12:32:41 (/MySQL/Connection.php) INFO > [localhost - MySQL] Querying: SELECT * FROM Properties ;
400. 21/08/16 12:32:41 (/MySQL/Connection.php) INFO > [localhost - MySQL] Querying: SELECT * FROM Properties ;
401. 21/08/16 12:34:10 (/MySQL/Connection.php) INFO > [localhost - MySQL] Querying: SELECT * FROM Properties ;
402. 21/08/16 12:34:11 (/MySQL/Connection.php) INFO > [localhost - MySQL] Querying: SELECT * FROM Properties ;
403. 21/08/16 12:34:11 (/MySQL/Connection.php) INFO > [localhost - MySQL] Querying: SELECT * FROM Properties ;
404. 21/08/16 12:34:12 (/MySQL/Connection.php) INFO > [localhost - MySQL] Querying: SELECT * FROM Properties ;
405. 21/08/16 12:36:45 (/MySQL/Connection.php) INFO > [localhost - MySQL] Querying: SELECT * FROM Properties ;
406. 21/08/16 12:36:46 (/MySQL/Connection.php) INFO > [localhost - MySQL] Querying: SELECT * FROM Properties ;
407. 21/08/16 12:36:52 (/MySQL/Connection.php) INFO > [localhost - MySQL] Querying: SELECT * FROM Properties ;
408. 21/08/16 12:37:14 (/MySQL/Connection.php) INFO > [localhost - MySQL] Querying: SELECT * FROM Properties ;
409. 21/08/16 12:38:14 (/MySQL/Connection.php) INFO > [localhost - MySQL] Querying: SELECT * FROM Properties ;
410. 21/08/16 12:38:15 (/MySQL/Connection.php) INFO > [localhost - MySQL] Querying: SELECT * FROM Properties ;
411. 21/08/16 12:38:16 (/MySQL/Connection.php) INFO > [localhost - MySQL] Querying: SELECT * FROM Properties ;
412. 21/08/16 12:38:21 (/MySQL/Connection.php) INFO > [localhost - MySQL] Querying: SELECT * FROM Properties ;
413. 21/08/16 12:38:22 (/MySQL/Connection.php) INFO > [localhost - MySQL] Querying: SELECT * FROM Properties ;
414. 21/08/16 12:38:27 (/MySQL/Connection.php) INFO > [localhost - MySQL] Querying: SELECT * FROM Properties ;
415. 21/08/16 12:38:27 (/MySQL/Connection.php) INFO > [localhost - MySQL] Querying: SELECT * FROM Properties ;
416. 21/08/16 12:38:28 (/MySQL/Connection.php) INFO > [localhost - MySQL] Querying: SELECT * FROM Properties ;
417. 21/08/16 12:38:38 (/MySQL/Connection.php) INFO > [localhost - MySQL] Querying: SELECT * FROM Properties ;
418. 21/08/16 12:38:50 (/MySQL/Connection.php) INFO > [localhost - MySQL] Querying: SELECT * FROM Properties ;
419. 21/08/16 12:38:50 (/MySQL/Connection.php) INFO > [localhost - MySQL] Querying: SELECT * FROM Properties ;
420. 21/08/16 12:39:10 (/MySQL/Connection.php) INFO > [localhost - MySQL] Querying: SELECT * FROM Properties ;
421. 21/08/16 12:39:11 (/MySQL/Connection.php) INFO > [localhost - MySQL] Querying: SELECT * FROM Properties ;
422. 21/08/16 12:39:11 (/MySQL/Connection.php) INFO > [localhost - MySQL] Querying: SELECT * FROM Properties ;
423. 21/08/16 12:39:24 (/MySQL/Connection.php) INFO > [localhost - MySQL] Querying: SELECT * FROM Properties ;
424. 21/08/16 12:39:29 (/MySQL/Connection.php) INFO > [localhost - MySQL] Querying: SELECT * FROM Properties ;
425. 21/08/16 12:39:31 (/MySQL/Connection.php) INFO > [localhost - MySQL] Querying: SELECT * FROM Properties ;
426. 21/08/16 12:39:31 (/MySQL/Connection.php) INFO > [localhost - MySQL] Querying: SELECT * FROM Properties ;
427. 21/08/16 12:39:31 (/MySQL/Connection.php) INFO > [localhost - MySQL] Querying: SELECT * FROM Properties ;
428. 21/08/16 12:39:31 (/MySQL/Connection.php) INFO > [localhost - MySQL] Querying: SELECT * FROM Properties ;
429. 21/08/16 12:39:42 (/MySQL/Connection.php) INFO > [localhost - MySQL] Querying: SELECT * FROM Properties ;
430. 21/08/16 12:40:30 (/MySQL/Connection.php) INFO > [localhost - MySQL] Querying: SELECT * FROM Properties ;
431. 21/08/16 12:40:31 (/MySQL/Connection.php) INFO > [localhost - MySQL] Querying: SELECT * FROM Properties ;
432. 21/08/16 12:40:40 (/MySQL/Connection.php) INFO > [localhost - MySQL] Querying: SELECT * FROM Properties ;
433. 21/08/16 12:40:41 (/MySQL/Connection.php) INFO > [localhost - MySQL] Querying: SELECT * FROM Properties ;
434. 21/08/16 12:40:41 (/MySQL/Connection.php) INFO > [localhost - MySQL] Querying: SELECT * FROM Properties ;
435. 21/08/16 12:40:42 (/MySQL/Connection.php) INFO > [localhost - MySQL] Querying: SELECT * FROM Properties ;
436. 21/08/16 12:40:47 (/MySQL/Connection.php) INFO > [localhost - MySQL] Querying: SELECT * FROM Properties ;
437. 21/08/16 12:40:47 (/MySQL/Connection.php) INFO > [localhost - MySQL] Querying: SELECT * FROM Properties ;
438. 21/08/16 12:41:40 (/MySQL/Connection.php) INFO > [localhost - MySQL] Querying: SELECT * FROM Properties ;
439. 21/08/16 12:41:41 (/MySQL/Connection.php) INFO > [localhost - MySQL] Querying: SELECT * FROM Properties ;
440. 21/08/16 12:41:41 (/MySQL/Connection.php) INFO > [localhost - MySQL] Querying: SELECT * FROM Properties ;
441. 21/08/16 12:41:45 (/MySQL/Connection.php) INFO > [localhost - MySQL] Querying: SELECT * FROM Properties ;
442. 21/08/16 12:42:08 (/MySQL/Connection.php) INFO > [localhost - MySQL] Querying: SELECT * FROM Properties ;
443. 21/08/16 12:42:17 (/MySQL/Connection.php) INFO > [localhost - MySQL] Querying: SELECT * FROM Properties ;
444. 21/08/16 12:42:18 (/MySQL/Connection.php) INFO > [localhost - MySQL] Querying: SELECT * FROM Properties ;
445. 21/08/16 12:42:27 (/MySQL/Connection.php) INFO > [localhost - MySQL] Querying: SELECT * FROM Properties ;
446. 21/08/16 12:42:28 (/MySQL/Connection.php) INFO > [localhost - MySQL] Querying: SELECT * FROM Properties ;
447. 21/08/16 12:42:28 (/MySQL/Connection.php) INFO > [localhost - MySQL] Querying: SELECT * FROM Properties ;
448. 21/08/16 12:42:29 (/MySQL/Connection.php) INFO > [localhost - MySQL] Querying: SELECT * FROM Properties ;
449. 21/08/16 12:42:29 (/MySQL/Connection.php) INFO > [localhost - MySQL] Querying: SELECT * FROM Properties ;
450. 21/08/16 12:42:33 (/MySQL/Connection.php) INFO > [localhost - MySQL] Querying: SELECT * FROM Properties ;
451. 21/08/16 12:42:34 (/MySQL/Connection.php) INFO > [localhost - MySQL] Querying: SELECT * FROM Properties ;
452. 21/08/16 12:42:34 (/MySQL/Connection.php) INFO > [localhost - MySQL] Querying: SELECT * FROM Properties ;
453. 21/08/16 12:42:37 (/MySQL/Connection.php) INFO > [localhost - MySQL] Querying: SELECT * FROM Properties ;
454. 21/08/16 12:42:40 (/MySQL/Connection.php) INFO > [localhost - MySQL] Querying: SELECT * FROM Properties ;
455. 21/08/16 12:42:44 (/MySQL/Connection.php) INFO > [localhost - MySQL] Querying: SELECT * FROM Properties ;
456. 21/08/16 12:42:45 (/MySQL/Connection.php) INFO > [localhost - MySQL] Querying: SELECT * FROM Properties ;
457. 21/08/16 12:42:49 (/MySQL/Connection.php) INFO > [localhost - MySQL] Querying: SELECT * FROM Properties ;
458. 21/08/16 12:42:50 (/MySQL/Connection.php) INFO > [localhost - MySQL] Querying: SELECT * FROM Properties ;
459. 21/08/16 12:42:54 (/MySQL/Connection.php) INFO > [localhost - MySQL] Querying: SELECT * FROM Properties ;
460. 21/08/16 12:47:34 (/MySQL/Connection.php) INFO > [localhost - MySQL] Querying: SELECT * FROM Properties ;
461. 22/08/16 09:22:17 (/MySQL/Connection.php) INFO > [localhost - MySQL] Querying: SELECT * FROM Properties ;
462. 22/08/16 02:22:19 (/MySQL/Connection.php) INFO > [localhost - MySQL] Querying: SELECT * FROM Services ;
463. 25/08/16 23:14:04 (/MySQL/Connection.php) INFO > [localhost - MySQL] Querying: SELECT * FROM Properties ;
464. 25/08/16 23:14:52 (/MySQL/Connection.php) INFO > [localhost - MySQL] Querying: SELECT * FROM Properties ;
465. 25/08/16 23:15:40 (/MySQL/Connection.php) INFO > [localhost - MySQL] Querying: SELECT * FROM Properties ;
466. 25/08/16 23:16:02 (/MySQL/Connection.php) INFO > [localhost - MySQL] Querying: SELECT * FROM Properties ;
467. 25/08/16 23:16:15 (/MySQL/Connection.php) INFO > [localhost - MySQL] Querying: SELECT * FROM Properties ;
468. 25/08/16 23:16:19 (/MySQL/Connection.php) INFO > [localhost - MySQL] Querying: SELECT * FROM Properties ;
469. 25/08/16 23:16:42 (/MySQL/Connection.php) INFO > [localhost - MySQL] Querying: SELECT * FROM Properties ;
470. 25/08/16 23:17:41 (/MySQL/Connection.php) INFO > [localhost - MySQL] Querying: SELECT * FROM Properties ;
471. 25/08/16 16:17:41 (/MySQL/Connection.php) INFO > [localhost - MySQL] Querying: SELECT * FROM Services ;
472. 25/08/16 23:17:58 (/MySQL/Connection.php) INFO > [localhost - MySQL] Querying: SELECT * FROM Properties ;
473. 25/08/16 16:17:58 (/MySQL/Connection.php) INFO > [localhost - MySQL] Querying: SELECT * FROM Services ;
474. 25/08/16 23:18:05 (/MySQL/Connection.php) INFO > [localhost - MySQL] Querying: SELECT * FROM Properties ;
475. 25/08/16 16:18:05 (/MySQL/Connection.php) INFO > [localhost - MySQL] Querying: SELECT * FROM Services ;
476. 25/08/16 23:19:12 (/MySQL/Connection.php) INFO > [localhost - MySQL] Querying: SELECT * FROM Properties ;
477. 25/08/16 23:19:12 (/MySQL/Connection.php) INFO > [localhost - MySQL] Querying: SELECT * FROM Properties ;
478. 29/08/16 09:00:35 (/MySQL/Connection.php) INFO > [localhost - MySQL] Querying: SELECT * FROM Properties ;
479. 29/08/16 02:00:35 (/MySQL/Connection.php) INFO > [localhost - MySQL] Querying: SELECT * FROM Services ;
480. 29/08/16 09:03:18 (/MySQL/Connection.php) INFO > [localhost - MySQL] Querying: SELECT * FROM Properties ;
481. 29/08/16 02:03:19 (/MySQL/Connection.php) INFO > [localhost - MySQL] Querying: SELECT * FROM Services ;
482. 29/08/16 09:04:47 (/MySQL/Connection.php) INFO > [localhost - MySQL] Querying: SELECT * FROM Properties ;
483. 29/08/16 02:04:47 (/MySQL/Connection.php) INFO > [localhost - MySQL] Querying: SELECT * FROM Services ;
484. 29/08/16 09:05:00 (/MySQL/Connection.php) INFO > [localhost - MySQL] Querying: SELECT * FROM Properties ;
485. 29/08/16 02:05:00 (/MySQL/Connection.php) INFO > [localhost - MySQL] Querying: SELECT * FROM Services ;
486. 29/08/16 09:05:13 (/MySQL/Connection.php) INFO > [localhost - MySQL] Querying: SELECT * FROM Properties ;
487. 29/08/16 02:05:13 (/MySQL/Connection.php) INFO > [localhost - MySQL] Querying: SELECT * FROM Services ;
488. 29/08/16 09:05:16 (/MySQL/Connection.php) INFO > [localhost - MySQL] Querying: SELECT * FROM Properties ;
489. 29/08/16 02:05:16 (/MySQL/Connection.php) INFO > [localhost - MySQL] Querying: SELECT * FROM Services ;
490. 29/08/16 09:05:17 (/MySQL/Connection.php) INFO > [localhost - MySQL] Querying: SELECT * FROM Properties ;
491. 29/08/16 02:05:17 (/MySQL/Connection.php) INFO > [localhost - MySQL] Querying: SELECT * FROM Services ;
492. 29/08/16 09:05:38 (/MySQL/Connection.php) INFO > [localhost - MySQL] Querying: SELECT * FROM Properties ;
493. 29/08/16 02:05:38 (/MySQL/Connection.php) INFO > [localhost - MySQL] Querying: SELECT * FROM Services ;
494. 29/08/16 09:05:40 (/MySQL/Connection.php) INFO > [localhost - MySQL] Querying: SELECT * FROM Properties ;
495. 29/08/16 02:05:40 (/MySQL/Connection.php) INFO > [localhost - MySQL] Querying: SELECT * FROM Services ;
496. 29/08/16 09:05:48 (/MySQL/Connection.php) INFO > [localhost - MySQL] Querying: SELECT * FROM Properties ;
497. 29/08/16 02:05:48 (/MySQL/Connection.php) INFO > [localhost - MySQL] Querying: SELECT * FROM Services ;
498. 29/08/16 09:06:23 (/MySQL/Connection.php) INFO > [localhost - MySQL] Querying: SELECT * FROM Properties ;
499. 29/08/16 02:06:23 (/MySQL/Connection.php) INFO > [localhost - MySQL] Querying: SELECT * FROM Services ;
