1. 29/08/16 09:41:29 (/HK/OOD/Fields/DateField.php) WARNING > code 8192 - line 26 - Non-static method HK\Formatter::format() should not be called statically
2. 29/08/16 09:41:29 (/HK/Formatter.php) WARNING > code 8192 - line 12 - Non-static method HK\Formatter::formatToDateTime() should not be called statically
3. 29/08/16 09:41:29 (/HK/Formatter.php) WARNING > code 8192 - line 61 - Non-static method HK\Formatter::formatToDate() should not be called statically
4. 29/08/16 09:42:02 (/HK/OOD/Fields/DateField.php) WARNING > code 8192 - line 26 - Non-static method HK\Formatter::format() should not be called statically
5. 29/08/16 09:42:02 (/HK/Formatter.php) WARNING > code 8192 - line 12 - Non-static method HK\Formatter::formatToDateTime() should not be called statically
6. 29/08/16 09:42:02 (/HK/Formatter.php) WARNING > code 8192 - line 61 - Non-static method HK\Formatter::formatToDate() should not be called statically
7. 29/08/16 09:42:02 (/HK/OOD/Fields/DateField.php) WARNING > code 8192 - line 26 - Non-static method HK\Formatter::format() should not be called statically
8. 29/08/16 09:42:02 (/HK/Formatter.php) WARNING > code 8192 - line 12 - Non-static method HK\Formatter::formatToDateTime() should not be called statically
9. 29/08/16 09:42:02 (/HK/Formatter.php) WARNING > code 8192 - line 61 - Non-static method HK\Formatter::formatToDate() should not be called statically
10. 29/08/16 09:42:02 (/HK/OOD/Fields/DateField.php) WARNING > code 8192 - line 26 - Non-static method HK\Formatter::format() should not be called statically
11. 29/08/16 09:42:02 (/HK/Formatter.php) WARNING > code 8192 - line 12 - Non-static method HK\Formatter::formatToDateTime() should not be called statically
12. 29/08/16 09:42:02 (/HK/Formatter.php) WARNING > code 8192 - line 61 - Non-static method HK\Formatter::formatToDate() should not be called statically
13. 29/08/16 09:42:02 (/HK/OOD/Fields/DateField.php) WARNING > code 8192 - line 26 - Non-static method HK\Formatter::format() should not be called statically
14. 29/08/16 09:42:02 (/HK/Formatter.php) WARNING > code 8192 - line 12 - Non-static method HK\Formatter::formatToDateTime() should not be called statically
15. 29/08/16 09:42:02 (/HK/Formatter.php) WARNING > code 8192 - line 61 - Non-static method HK\Formatter::formatToDate() should not be called statically
16. 29/08/16 09:42:02 (/HK/OOD/Fields/DateField.php) WARNING > code 8192 - line 26 - Non-static method HK\Formatter::format() should not be called statically
17. 29/08/16 09:42:02 (/HK/Formatter.php) WARNING > code 8192 - line 12 - Non-static method HK\Formatter::formatToDateTime() should not be called statically
18. 29/08/16 09:42:02 (/HK/Formatter.php) WARNING > code 8192 - line 61 - Non-static method HK\Formatter::formatToDate() should not be called statically
19. 29/08/16 09:42:02 (/HK/OOD/Fields/DateField.php) WARNING > code 8192 - line 26 - Non-static method HK\Formatter::format() should not be called statically
20. 29/08/16 09:42:02 (/HK/Formatter.php) WARNING > code 8192 - line 12 - Non-static method HK\Formatter::formatToDateTime() should not be called statically
21. 29/08/16 09:42:02 (/HK/Formatter.php) WARNING > code 8192 - line 61 - Non-static method HK\Formatter::formatToDate() should not be called statically
22. 29/08/16 09:42:02 (/HK/OOD/Fields/DateField.php) WARNING > code 8192 - line 26 - Non-static method HK\Formatter::format() should not be called statically
23. 29/08/16 09:42:02 (/HK/Formatter.php) WARNING > code 8192 - line 12 - Non-static method HK\Formatter::formatToDateTime() should not be called statically
24. 29/08/16 09:42:02 (/HK/Formatter.php) WARNING > code 8192 - line 61 - Non-static method HK\Formatter::formatToDate() should not be called statically
25. 29/08/16 09:42:02 (/HK/OOD/Fields/DateField.php) WARNING > code 8192 - line 26 - Non-static method HK\Formatter::format() should not be called statically
26. 29/08/16 09:42:02 (/HK/Formatter.php) WARNING > code 8192 - line 12 - Non-static method HK\Formatter::formatToDateTime() should not be called statically
27. 29/08/16 09:42:02 (/HK/Formatter.php) WARNING > code 8192 - line 61 - Non-static method HK\Formatter::formatToDate() should not be called statically
28. 29/08/16 09:42:02 (/HK/OOD/Fields/DateField.php) WARNING > code 8192 - line 26 - Non-static method HK\Formatter::format() should not be called statically
29. 29/08/16 09:42:02 (/HK/Formatter.php) WARNING > code 8192 - line 12 - Non-static method HK\Formatter::formatToDateTime() should not be called statically
30. 29/08/16 09:42:02 (/HK/Formatter.php) WARNING > code 8192 - line 61 - Non-static method HK\Formatter::formatToDate() should not be called statically
31. 29/08/16 09:42:02 (/HK/OOD/Fields/DateField.php) WARNING > code 8192 - line 26 - Non-static method HK\Formatter::format() should not be called statically
32. 29/08/16 09:42:02 (/HK/Formatter.php) WARNING > code 8192 - line 12 - Non-static method HK\Formatter::formatToDateTime() should not be called statically
33. 29/08/16 09:42:02 (/HK/Formatter.php) WARNING > code 8192 - line 61 - Non-static method HK\Formatter::formatToDate() should not be called statically
34. 29/08/16 09:42:29 (/HK/OOD/Fields/DateField.php) WARNING > code 8192 - line 26 - Non-static method HK\Formatter::format() should not be called statically
35. 29/08/16 09:42:29 (/HK/Formatter.php) WARNING > code 8192 - line 12 - Non-static method HK\Formatter::formatToDateTime() should not be called statically
36. 29/08/16 09:42:29 (/HK/Formatter.php) WARNING > code 8192 - line 61 - Non-static method HK\Formatter::formatToDate() should not be called statically
37. 29/08/16 09:42:29 (/HK/OOD/Fields/DateField.php) WARNING > code 8192 - line 26 - Non-static method HK\Formatter::format() should not be called statically
38. 29/08/16 09:42:29 (/HK/Formatter.php) WARNING > code 8192 - line 12 - Non-static method HK\Formatter::formatToDateTime() should not be called statically
39. 29/08/16 09:42:29 (/HK/Formatter.php) WARNING > code 8192 - line 61 - Non-static method HK\Formatter::formatToDate() should not be called statically
40. 29/08/16 09:42:29 (/HK/OOD/Fields/DateField.php) WARNING > code 8192 - line 26 - Non-static method HK\Formatter::format() should not be called statically
41. 29/08/16 09:42:29 (/HK/Formatter.php) WARNING > code 8192 - line 12 - Non-static method HK\Formatter::formatToDateTime() should not be called statically
42. 29/08/16 09:42:29 (/HK/Formatter.php) WARNING > code 8192 - line 61 - Non-static method HK\Formatter::formatToDate() should not be called statically
43. 29/08/16 09:42:29 (/HK/OOD/Fields/DateField.php) WARNING > code 8192 - line 26 - Non-static method HK\Formatter::format() should not be called statically
44. 29/08/16 09:42:29 (/HK/Formatter.php) WARNING > code 8192 - line 12 - Non-static method HK\Formatter::formatToDateTime() should not be called statically
45. 29/08/16 09:42:29 (/HK/Formatter.php) WARNING > code 8192 - line 61 - Non-static method HK\Formatter::formatToDate() should not be called statically
46. 29/08/16 09:42:29 (/HK/OOD/Fields/DateField.php) WARNING > code 8192 - line 26 - Non-static method HK\Formatter::format() should not be called statically
47. 29/08/16 09:42:29 (/HK/Formatter.php) WARNING > code 8192 - line 12 - Non-static method HK\Formatter::formatToDateTime() should not be called statically
48. 29/08/16 09:42:29 (/HK/Formatter.php) WARNING > code 8192 - line 61 - Non-static method HK\Formatter::formatToDate() should not be called statically
49. 29/08/16 09:42:29 (/HK/OOD/Fields/DateField.php) WARNING > code 8192 - line 26 - Non-static method HK\Formatter::format() should not be called statically
50. 29/08/16 09:42:29 (/HK/Formatter.php) WARNING > code 8192 - line 12 - Non-static method HK\Formatter::formatToDateTime() should not be called statically
51. 29/08/16 09:42:29 (/HK/Formatter.php) WARNING > code 8192 - line 61 - Non-static method HK\Formatter::formatToDate() should not be called statically
52. 29/08/16 09:42:29 (/HK/OOD/Fields/DateField.php) WARNING > code 8192 - line 26 - Non-static method HK\Formatter::format() should not be called statically
53. 29/08/16 09:42:29 (/HK/Formatter.php) WARNING > code 8192 - line 12 - Non-static method HK\Formatter::formatToDateTime() should not be called statically
54. 29/08/16 09:42:29 (/HK/Formatter.php) WARNING > code 8192 - line 61 - Non-static method HK\Formatter::formatToDate() should not be called statically
55. 29/08/16 09:42:29 (/HK/OOD/Fields/DateField.php) WARNING > code 8192 - line 26 - Non-static method HK\Formatter::format() should not be called statically
56. 29/08/16 09:42:29 (/HK/Formatter.php) WARNING > code 8192 - line 12 - Non-static method HK\Formatter::formatToDateTime() should not be called statically
57. 29/08/16 09:42:29 (/HK/Formatter.php) WARNING > code 8192 - line 61 - Non-static method HK\Formatter::formatToDate() should not be called statically
58. 29/08/16 09:42:29 (/HK/OOD/Fields/DateField.php) WARNING > code 8192 - line 26 - Non-static method HK\Formatter::format() should not be called statically
59. 29/08/16 09:42:29 (/HK/Formatter.php) WARNING > code 8192 - line 12 - Non-static method HK\Formatter::formatToDateTime() should not be called statically
60. 29/08/16 09:42:29 (/HK/Formatter.php) WARNING > code 8192 - line 61 - Non-static method HK\Formatter::formatToDate() should not be called statically
61. 29/08/16 09:42:29 (/HK/OOD/Fields/DateField.php) WARNING > code 8192 - line 26 - Non-static method HK\Formatter::format() should not be called statically
62. 29/08/16 09:42:29 (/HK/Formatter.php) WARNING > code 8192 - line 12 - Non-static method HK\Formatter::formatToDateTime() should not be called statically
63. 29/08/16 09:42:29 (/HK/Formatter.php) WARNING > code 8192 - line 61 - Non-static method HK\Formatter::formatToDate() should not be called statically
64. 29/08/16 09:42:30 (/HK/OOD/Fields/DateField.php) WARNING > code 8192 - line 26 - Non-static method HK\Formatter::format() should not be called statically
65. 29/08/16 09:42:30 (/HK/Formatter.php) WARNING > code 8192 - line 12 - Non-static method HK\Formatter::formatToDateTime() should not be called statically
66. 29/08/16 09:42:30 (/HK/Formatter.php) WARNING > code 8192 - line 61 - Non-static method HK\Formatter::formatToDate() should not be called statically
67. 29/08/16 09:42:30 (/HK/OOD/Fields/DateField.php) WARNING > code 8192 - line 26 - Non-static method HK\Formatter::format() should not be called statically
68. 29/08/16 09:42:30 (/HK/Formatter.php) WARNING > code 8192 - line 12 - Non-static method HK\Formatter::formatToDateTime() should not be called statically
69. 29/08/16 09:42:30 (/HK/Formatter.php) WARNING > code 8192 - line 61 - Non-static method HK\Formatter::formatToDate() should not be called statically
70. 29/08/16 09:42:30 (/HK/OOD/Fields/DateField.php) WARNING > code 8192 - line 26 - Non-static method HK\Formatter::format() should not be called statically
71. 29/08/16 09:42:30 (/HK/Formatter.php) WARNING > code 8192 - line 12 - Non-static method HK\Formatter::formatToDateTime() should not be called statically
72. 29/08/16 09:42:30 (/HK/Formatter.php) WARNING > code 8192 - line 61 - Non-static method HK\Formatter::formatToDate() should not be called statically
73. 29/08/16 09:42:30 (/HK/OOD/Fields/DateField.php) WARNING > code 8192 - line 26 - Non-static method HK\Formatter::format() should not be called statically
74. 29/08/16 09:42:30 (/HK/Formatter.php) WARNING > code 8192 - line 12 - Non-static method HK\Formatter::formatToDateTime() should not be called statically
75. 29/08/16 09:42:30 (/HK/Formatter.php) WARNING > code 8192 - line 61 - Non-static method HK\Formatter::formatToDate() should not be called statically
76. 29/08/16 09:42:30 (/HK/OOD/Fields/DateField.php) WARNING > code 8192 - line 26 - Non-static method HK\Formatter::format() should not be called statically
77. 29/08/16 09:42:30 (/HK/Formatter.php) WARNING > code 8192 - line 12 - Non-static method HK\Formatter::formatToDateTime() should not be called statically
78. 29/08/16 09:42:30 (/HK/Formatter.php) WARNING > code 8192 - line 61 - Non-static method HK\Formatter::formatToDate() should not be called statically
79. 29/08/16 09:42:30 (/HK/OOD/Fields/DateField.php) WARNING > code 8192 - line 26 - Non-static method HK\Formatter::format() should not be called statically
80. 29/08/16 09:42:30 (/HK/Formatter.php) WARNING > code 8192 - line 12 - Non-static method HK\Formatter::formatToDateTime() should not be called statically
81. 29/08/16 09:42:30 (/HK/Formatter.php) WARNING > code 8192 - line 61 - Non-static method HK\Formatter::formatToDate() should not be called statically
82. 29/08/16 09:42:30 (/HK/OOD/Fields/DateField.php) WARNING > code 8192 - line 26 - Non-static method HK\Formatter::format() should not be called statically
83. 29/08/16 09:42:30 (/HK/Formatter.php) WARNING > code 8192 - line 12 - Non-static method HK\Formatter::formatToDateTime() should not be called statically
84. 29/08/16 09:42:30 (/HK/Formatter.php) WARNING > code 8192 - line 61 - Non-static method HK\Formatter::formatToDate() should not be called statically
85. 29/08/16 09:42:30 (/HK/OOD/Fields/DateField.php) WARNING > code 8192 - line 26 - Non-static method HK\Formatter::format() should not be called statically
86. 29/08/16 09:42:30 (/HK/Formatter.php) WARNING > code 8192 - line 12 - Non-static method HK\Formatter::formatToDateTime() should not be called statically
87. 29/08/16 09:42:30 (/HK/Formatter.php) WARNING > code 8192 - line 61 - Non-static method HK\Formatter::formatToDate() should not be called statically
88. 29/08/16 09:42:30 (/HK/OOD/Fields/DateField.php) WARNING > code 8192 - line 26 - Non-static method HK\Formatter::format() should not be called statically
89. 29/08/16 09:42:30 (/HK/Formatter.php) WARNING > code 8192 - line 12 - Non-static method HK\Formatter::formatToDateTime() should not be called statically
90. 29/08/16 09:42:30 (/HK/Formatter.php) WARNING > code 8192 - line 61 - Non-static method HK\Formatter::formatToDate() should not be called statically
91. 29/08/16 09:42:30 (/HK/OOD/Fields/DateField.php) WARNING > code 8192 - line 26 - Non-static method HK\Formatter::format() should not be called statically
92. 29/08/16 09:42:30 (/HK/Formatter.php) WARNING > code 8192 - line 12 - Non-static method HK\Formatter::formatToDateTime() should not be called statically
93. 29/08/16 09:42:30 (/HK/Formatter.php) WARNING > code 8192 - line 61 - Non-static method HK\Formatter::formatToDate() should not be called statically
94. 29/08/16 09:42:37 (/HK/OOD/Fields/DateField.php) WARNING > code 8192 - line 26 - Non-static method HK\Formatter::format() should not be called statically
95. 29/08/16 09:42:37 (/HK/Formatter.php) WARNING > code 8192 - line 12 - Non-static method HK\Formatter::formatToDateTime() should not be called statically
96. 29/08/16 09:42:37 (/HK/Formatter.php) WARNING > code 8192 - line 61 - Non-static method HK\Formatter::formatToDate() should not be called statically
97. 29/08/16 09:42:37 (/HK/OOD/Fields/DateField.php) WARNING > code 8192 - line 26 - Non-static method HK\Formatter::format() should not be called statically
98. 29/08/16 09:42:37 (/HK/Formatter.php) WARNING > code 8192 - line 12 - Non-static method HK\Formatter::formatToDateTime() should not be called statically
99. 29/08/16 09:42:37 (/HK/Formatter.php) WARNING > code 8192 - line 61 - Non-static method HK\Formatter::formatToDate() should not be called statically
100. 29/08/16 09:42:37 (/HK/OOD/Fields/DateField.php) WARNING > code 8192 - line 26 - Non-static method HK\Formatter::format() should not be called statically
101. 29/08/16 09:42:37 (/HK/Formatter.php) WARNING > code 8192 - line 12 - Non-static method HK\Formatter::formatToDateTime() should not be called statically
102. 29/08/16 09:42:37 (/HK/Formatter.php) WARNING > code 8192 - line 61 - Non-static method HK\Formatter::formatToDate() should not be called statically
103. 29/08/16 09:42:37 (/HK/OOD/Fields/DateField.php) WARNING > code 8192 - line 26 - Non-static method HK\Formatter::format() should not be called statically
104. 29/08/16 09:42:37 (/HK/Formatter.php) WARNING > code 8192 - line 12 - Non-static method HK\Formatter::formatToDateTime() should not be called statically
105. 29/08/16 09:42:37 (/HK/Formatter.php) WARNING > code 8192 - line 61 - Non-static method HK\Formatter::formatToDate() should not be called statically
106. 29/08/16 09:42:37 (/HK/OOD/Fields/DateField.php) WARNING > code 8192 - line 26 - Non-static method HK\Formatter::format() should not be called statically
107. 29/08/16 09:42:37 (/HK/Formatter.php) WARNING > code 8192 - line 12 - Non-static method HK\Formatter::formatToDateTime() should not be called statically
108. 29/08/16 09:42:37 (/HK/Formatter.php) WARNING > code 8192 - line 61 - Non-static method HK\Formatter::formatToDate() should not be called statically
109. 29/08/16 09:42:37 (/HK/OOD/Fields/DateField.php) WARNING > code 8192 - line 26 - Non-static method HK\Formatter::format() should not be called statically
110. 29/08/16 09:42:37 (/HK/Formatter.php) WARNING > code 8192 - line 12 - Non-static method HK\Formatter::formatToDateTime() should not be called statically
111. 29/08/16 09:42:37 (/HK/Formatter.php) WARNING > code 8192 - line 61 - Non-static method HK\Formatter::formatToDate() should not be called statically
112. 29/08/16 09:42:37 (/HK/OOD/Fields/DateField.php) WARNING > code 8192 - line 26 - Non-static method HK\Formatter::format() should not be called statically
113. 29/08/16 09:42:37 (/HK/Formatter.php) WARNING > code 8192 - line 12 - Non-static method HK\Formatter::formatToDateTime() should not be called statically
114. 29/08/16 09:42:37 (/HK/Formatter.php) WARNING > code 8192 - line 61 - Non-static method HK\Formatter::formatToDate() should not be called statically
115. 29/08/16 09:42:37 (/HK/OOD/Fields/DateField.php) WARNING > code 8192 - line 26 - Non-static method HK\Formatter::format() should not be called statically
116. 29/08/16 09:42:37 (/HK/Formatter.php) WARNING > code 8192 - line 12 - Non-static method HK\Formatter::formatToDateTime() should not be called statically
117. 29/08/16 09:42:37 (/HK/Formatter.php) WARNING > code 8192 - line 61 - Non-static method HK\Formatter::formatToDate() should not be called statically
118. 29/08/16 09:42:37 (/HK/OOD/Fields/DateField.php) WARNING > code 8192 - line 26 - Non-static method HK\Formatter::format() should not be called statically
119. 29/08/16 09:42:37 (/HK/Formatter.php) WARNING > code 8192 - line 12 - Non-static method HK\Formatter::formatToDateTime() should not be called statically
120. 29/08/16 09:42:37 (/HK/Formatter.php) WARNING > code 8192 - line 61 - Non-static method HK\Formatter::formatToDate() should not be called statically
121. 29/08/16 09:42:37 (/HK/OOD/Fields/DateField.php) WARNING > code 8192 - line 26 - Non-static method HK\Formatter::format() should not be called statically
122. 29/08/16 09:42:37 (/HK/Formatter.php) WARNING > code 8192 - line 12 - Non-static method HK\Formatter::formatToDateTime() should not be called statically
123. 29/08/16 09:42:37 (/HK/Formatter.php) WARNING > code 8192 - line 61 - Non-static method HK\Formatter::formatToDate() should not be called statically
124. 29/08/16 09:43:50 (/HK/OOD/Fields/DateField.php) WARNING > code 8192 - line 26 - Non-static method HK\Formatter::format() should not be called statically
125. 29/08/16 09:43:50 (/HK/Formatter.php) WARNING > code 8192 - line 12 - Non-static method HK\Formatter::formatToDateTime() should not be called statically
126. 29/08/16 09:43:50 (/HK/Formatter.php) WARNING > code 8192 - line 61 - Non-static method HK\Formatter::formatToDate() should not be called statically
127. 29/08/16 09:43:50 (/HK/OOD/Fields/DateField.php) WARNING > code 8192 - line 26 - Non-static method HK\Formatter::format() should not be called statically
128. 29/08/16 09:43:50 (/HK/Formatter.php) WARNING > code 8192 - line 12 - Non-static method HK\Formatter::formatToDateTime() should not be called statically
129. 29/08/16 09:43:50 (/HK/Formatter.php) WARNING > code 8192 - line 61 - Non-static method HK\Formatter::formatToDate() should not be called statically
130. 29/08/16 09:43:50 (/HK/OOD/Fields/DateField.php) WARNING > code 8192 - line 26 - Non-static method HK\Formatter::format() should not be called statically
131. 29/08/16 09:43:50 (/HK/Formatter.php) WARNING > code 8192 - line 12 - Non-static method HK\Formatter::formatToDateTime() should not be called statically
132. 29/08/16 09:43:50 (/HK/Formatter.php) WARNING > code 8192 - line 61 - Non-static method HK\Formatter::formatToDate() should not be called statically
133. 29/08/16 09:43:50 (/HK/OOD/Fields/DateField.php) WARNING > code 8192 - line 26 - Non-static method HK\Formatter::format() should not be called statically
134. 29/08/16 09:43:50 (/HK/Formatter.php) WARNING > code 8192 - line 12 - Non-static method HK\Formatter::formatToDateTime() should not be called statically
135. 29/08/16 09:43:50 (/HK/Formatter.php) WARNING > code 8192 - line 61 - Non-static method HK\Formatter::formatToDate() should not be called statically
136. 29/08/16 09:43:50 (/HK/OOD/Fields/DateField.php) WARNING > code 8192 - line 26 - Non-static method HK\Formatter::format() should not be called statically
137. 29/08/16 09:43:50 (/HK/Formatter.php) WARNING > code 8192 - line 12 - Non-static method HK\Formatter::formatToDateTime() should not be called statically
138. 29/08/16 09:43:50 (/HK/Formatter.php) WARNING > code 8192 - line 61 - Non-static method HK\Formatter::formatToDate() should not be called statically
139. 29/08/16 09:43:50 (/HK/OOD/Fields/DateField.php) WARNING > code 8192 - line 26 - Non-static method HK\Formatter::format() should not be called statically
140. 29/08/16 09:43:50 (/HK/Formatter.php) WARNING > code 8192 - line 12 - Non-static method HK\Formatter::formatToDateTime() should not be called statically
141. 29/08/16 09:43:50 (/HK/Formatter.php) WARNING > code 8192 - line 61 - Non-static method HK\Formatter::formatToDate() should not be called statically
142. 29/08/16 09:43:50 (/HK/OOD/Fields/DateField.php) WARNING > code 8192 - line 26 - Non-static method HK\Formatter::format() should not be called statically
143. 29/08/16 09:43:50 (/HK/Formatter.php) WARNING > code 8192 - line 12 - Non-static method HK\Formatter::formatToDateTime() should not be called statically
144. 29/08/16 09:43:50 (/HK/Formatter.php) WARNING > code 8192 - line 61 - Non-static method HK\Formatter::formatToDate() should not be called statically
145. 29/08/16 09:43:50 (/HK/OOD/Fields/DateField.php) WARNING > code 8192 - line 26 - Non-static method HK\Formatter::format() should not be called statically
146. 29/08/16 09:43:50 (/HK/Formatter.php) WARNING > code 8192 - line 12 - Non-static method HK\Formatter::formatToDateTime() should not be called statically
147. 29/08/16 09:43:50 (/HK/Formatter.php) WARNING > code 8192 - line 61 - Non-static method HK\Formatter::formatToDate() should not be called statically
148. 29/08/16 09:43:50 (/HK/OOD/Fields/DateField.php) WARNING > code 8192 - line 26 - Non-static method HK\Formatter::format() should not be called statically
149. 29/08/16 09:43:50 (/HK/Formatter.php) WARNING > code 8192 - line 12 - Non-static method HK\Formatter::formatToDateTime() should not be called statically
150. 29/08/16 09:43:50 (/HK/Formatter.php) WARNING > code 8192 - line 61 - Non-static method HK\Formatter::formatToDate() should not be called statically
151. 29/08/16 09:43:50 (/HK/OOD/Fields/DateField.php) WARNING > code 8192 - line 26 - Non-static method HK\Formatter::format() should not be called statically
152. 29/08/16 09:43:50 (/HK/Formatter.php) WARNING > code 8192 - line 12 - Non-static method HK\Formatter::formatToDateTime() should not be called statically
153. 29/08/16 09:43:50 (/HK/Formatter.php) WARNING > code 8192 - line 61 - Non-static method HK\Formatter::formatToDate() should not be called statically
154. 29/08/16 09:43:56 (/HK/OOD/Fields/DateField.php) WARNING > code 8192 - line 26 - Non-static method HK\Formatter::format() should not be called statically
155. 29/08/16 09:43:56 (/HK/Formatter.php) WARNING > code 8192 - line 12 - Non-static method HK\Formatter::formatToDateTime() should not be called statically
156. 29/08/16 09:43:56 (/HK/Formatter.php) WARNING > code 8192 - line 61 - Non-static method HK\Formatter::formatToDate() should not be called statically
157. 29/08/16 09:43:56 (/HK/OOD/Fields/DateField.php) WARNING > code 8192 - line 26 - Non-static method HK\Formatter::format() should not be called statically
158. 29/08/16 09:43:56 (/HK/Formatter.php) WARNING > code 8192 - line 12 - Non-static method HK\Formatter::formatToDateTime() should not be called statically
159. 29/08/16 09:43:56 (/HK/Formatter.php) WARNING > code 8192 - line 61 - Non-static method HK\Formatter::formatToDate() should not be called statically
160. 29/08/16 09:43:56 (/HK/OOD/Fields/DateField.php) WARNING > code 8192 - line 26 - Non-static method HK\Formatter::format() should not be called statically
161. 29/08/16 09:43:56 (/HK/Formatter.php) WARNING > code 8192 - line 12 - Non-static method HK\Formatter::formatToDateTime() should not be called statically
162. 29/08/16 09:43:56 (/HK/Formatter.php) WARNING > code 8192 - line 61 - Non-static method HK\Formatter::formatToDate() should not be called statically
163. 29/08/16 09:43:56 (/HK/OOD/Fields/DateField.php) WARNING > code 8192 - line 26 - Non-static method HK\Formatter::format() should not be called statically
164. 29/08/16 09:43:56 (/HK/Formatter.php) WARNING > code 8192 - line 12 - Non-static method HK\Formatter::formatToDateTime() should not be called statically
165. 29/08/16 09:43:56 (/HK/Formatter.php) WARNING > code 8192 - line 61 - Non-static method HK\Formatter::formatToDate() should not be called statically
166. 29/08/16 09:43:56 (/HK/OOD/Fields/DateField.php) WARNING > code 8192 - line 26 - Non-static method HK\Formatter::format() should not be called statically
167. 29/08/16 09:43:56 (/HK/Formatter.php) WARNING > code 8192 - line 12 - Non-static method HK\Formatter::formatToDateTime() should not be called statically
168. 29/08/16 09:43:56 (/HK/Formatter.php) WARNING > code 8192 - line 61 - Non-static method HK\Formatter::formatToDate() should not be called statically
169. 29/08/16 09:43:56 (/HK/OOD/Fields/DateField.php) WARNING > code 8192 - line 26 - Non-static method HK\Formatter::format() should not be called statically
170. 29/08/16 09:43:56 (/HK/Formatter.php) WARNING > code 8192 - line 12 - Non-static method HK\Formatter::formatToDateTime() should not be called statically
171. 29/08/16 09:43:56 (/HK/Formatter.php) WARNING > code 8192 - line 61 - Non-static method HK\Formatter::formatToDate() should not be called statically
172. 29/08/16 09:43:56 (/HK/OOD/Fields/DateField.php) WARNING > code 8192 - line 26 - Non-static method HK\Formatter::format() should not be called statically
173. 29/08/16 09:43:56 (/HK/Formatter.php) WARNING > code 8192 - line 12 - Non-static method HK\Formatter::formatToDateTime() should not be called statically
174. 29/08/16 09:43:56 (/HK/Formatter.php) WARNING > code 8192 - line 61 - Non-static method HK\Formatter::formatToDate() should not be called statically
175. 29/08/16 09:43:56 (/HK/OOD/Fields/DateField.php) WARNING > code 8192 - line 26 - Non-static method HK\Formatter::format() should not be called statically
176. 29/08/16 09:43:56 (/HK/Formatter.php) WARNING > code 8192 - line 12 - Non-static method HK\Formatter::formatToDateTime() should not be called statically
177. 29/08/16 09:43:56 (/HK/Formatter.php) WARNING > code 8192 - line 61 - Non-static method HK\Formatter::formatToDate() should not be called statically
178. 29/08/16 09:43:56 (/HK/OOD/Fields/DateField.php) WARNING > code 8192 - line 26 - Non-static method HK\Formatter::format() should not be called statically
179. 29/08/16 09:43:56 (/HK/Formatter.php) WARNING > code 8192 - line 12 - Non-static method HK\Formatter::formatToDateTime() should not be called statically
180. 29/08/16 09:43:56 (/HK/Formatter.php) WARNING > code 8192 - line 61 - Non-static method HK\Formatter::formatToDate() should not be called statically
181. 29/08/16 09:43:56 (/HK/OOD/Fields/DateField.php) WARNING > code 8192 - line 26 - Non-static method HK\Formatter::format() should not be called statically
182. 29/08/16 09:43:56 (/HK/Formatter.php) WARNING > code 8192 - line 12 - Non-static method HK\Formatter::formatToDateTime() should not be called statically
183. 29/08/16 09:43:56 (/HK/Formatter.php) WARNING > code 8192 - line 61 - Non-static method HK\Formatter::formatToDate() should not be called statically
184. 29/08/16 09:44:27 (/HK/OOD/Fields/DateField.php) WARNING > code 8192 - line 26 - Non-static method HK\Formatter::format() should not be called statically
185. 29/08/16 09:44:27 (/HK/Formatter.php) WARNING > code 8192 - line 12 - Non-static method HK\Formatter::formatToDateTime() should not be called statically
186. 29/08/16 09:44:27 (/HK/Formatter.php) WARNING > code 8192 - line 61 - Non-static method HK\Formatter::formatToDate() should not be called statically
187. 29/08/16 09:44:27 (/HK/OOD/Fields/DateField.php) WARNING > code 8192 - line 26 - Non-static method HK\Formatter::format() should not be called statically
188. 29/08/16 09:44:27 (/HK/Formatter.php) WARNING > code 8192 - line 12 - Non-static method HK\Formatter::formatToDateTime() should not be called statically
189. 29/08/16 09:44:27 (/HK/Formatter.php) WARNING > code 8192 - line 61 - Non-static method HK\Formatter::formatToDate() should not be called statically
190. 29/08/16 09:44:27 (/HK/OOD/Fields/DateField.php) WARNING > code 8192 - line 26 - Non-static method HK\Formatter::format() should not be called statically
191. 29/08/16 09:44:27 (/HK/Formatter.php) WARNING > code 8192 - line 12 - Non-static method HK\Formatter::formatToDateTime() should not be called statically
192. 29/08/16 09:44:27 (/HK/Formatter.php) WARNING > code 8192 - line 61 - Non-static method HK\Formatter::formatToDate() should not be called statically
193. 29/08/16 09:44:27 (/HK/OOD/Fields/DateField.php) WARNING > code 8192 - line 26 - Non-static method HK\Formatter::format() should not be called statically
194. 29/08/16 09:44:27 (/HK/Formatter.php) WARNING > code 8192 - line 12 - Non-static method HK\Formatter::formatToDateTime() should not be called statically
195. 29/08/16 09:44:27 (/HK/Formatter.php) WARNING > code 8192 - line 61 - Non-static method HK\Formatter::formatToDate() should not be called statically
196. 29/08/16 09:44:27 (/HK/OOD/Fields/DateField.php) WARNING > code 8192 - line 26 - Non-static method HK\Formatter::format() should not be called statically
197. 29/08/16 09:44:27 (/HK/Formatter.php) WARNING > code 8192 - line 12 - Non-static method HK\Formatter::formatToDateTime() should not be called statically
198. 29/08/16 09:44:27 (/HK/Formatter.php) WARNING > code 8192 - line 61 - Non-static method HK\Formatter::formatToDate() should not be called statically
199. 29/08/16 09:44:27 (/HK/OOD/Fields/DateField.php) WARNING > code 8192 - line 26 - Non-static method HK\Formatter::format() should not be called statically
200. 29/08/16 09:44:27 (/HK/Formatter.php) WARNING > code 8192 - line 12 - Non-static method HK\Formatter::formatToDateTime() should not be called statically
201. 29/08/16 09:44:27 (/HK/Formatter.php) WARNING > code 8192 - line 61 - Non-static method HK\Formatter::formatToDate() should not be called statically
202. 29/08/16 09:44:27 (/HK/OOD/Fields/DateField.php) WARNING > code 8192 - line 26 - Non-static method HK\Formatter::format() should not be called statically
203. 29/08/16 09:44:27 (/HK/Formatter.php) WARNING > code 8192 - line 12 - Non-static method HK\Formatter::formatToDateTime() should not be called statically
204. 29/08/16 09:44:27 (/HK/Formatter.php) WARNING > code 8192 - line 61 - Non-static method HK\Formatter::formatToDate() should not be called statically
205. 29/08/16 09:44:27 (/HK/OOD/Fields/DateField.php) WARNING > code 8192 - line 26 - Non-static method HK\Formatter::format() should not be called statically
206. 29/08/16 09:44:27 (/HK/Formatter.php) WARNING > code 8192 - line 12 - Non-static method HK\Formatter::formatToDateTime() should not be called statically
207. 29/08/16 09:44:27 (/HK/Formatter.php) WARNING > code 8192 - line 61 - Non-static method HK\Formatter::formatToDate() should not be called statically
208. 29/08/16 09:44:27 (/HK/OOD/Fields/DateField.php) WARNING > code 8192 - line 26 - Non-static method HK\Formatter::format() should not be called statically
209. 29/08/16 09:44:27 (/HK/Formatter.php) WARNING > code 8192 - line 12 - Non-static method HK\Formatter::formatToDateTime() should not be called statically
210. 29/08/16 09:44:27 (/HK/Formatter.php) WARNING > code 8192 - line 61 - Non-static method HK\Formatter::formatToDate() should not be called statically
211. 29/08/16 09:44:27 (/HK/OOD/Fields/DateField.php) WARNING > code 8192 - line 26 - Non-static method HK\Formatter::format() should not be called statically
212. 29/08/16 09:44:27 (/HK/Formatter.php) WARNING > code 8192 - line 12 - Non-static method HK\Formatter::formatToDateTime() should not be called statically
213. 29/08/16 09:44:27 (/HK/Formatter.php) WARNING > code 8192 - line 61 - Non-static method HK\Formatter::formatToDate() should not be called statically
214. 29/08/16 09:44:51 (/HK/OOD/Fields/DateField.php) WARNING > code 8192 - line 26 - Non-static method HK\Formatter::format() should not be called statically
215. 29/08/16 09:44:51 (/HK/Formatter.php) WARNING > code 8192 - line 12 - Non-static method HK\Formatter::formatToDateTime() should not be called statically
216. 29/08/16 09:44:51 (/HK/Formatter.php) WARNING > code 8192 - line 61 - Non-static method HK\Formatter::formatToDate() should not be called statically
217. 29/08/16 09:44:51 (/HK/OOD/Fields/DateField.php) WARNING > code 8192 - line 26 - Non-static method HK\Formatter::format() should not be called statically
218. 29/08/16 09:44:51 (/HK/Formatter.php) WARNING > code 8192 - line 12 - Non-static method HK\Formatter::formatToDateTime() should not be called statically
219. 29/08/16 09:44:51 (/HK/Formatter.php) WARNING > code 8192 - line 61 - Non-static method HK\Formatter::formatToDate() should not be called statically
220. 29/08/16 09:44:51 (/HK/OOD/Fields/DateField.php) WARNING > code 8192 - line 26 - Non-static method HK\Formatter::format() should not be called statically
221. 29/08/16 09:44:51 (/HK/Formatter.php) WARNING > code 8192 - line 12 - Non-static method HK\Formatter::formatToDateTime() should not be called statically
222. 29/08/16 09:44:51 (/HK/Formatter.php) WARNING > code 8192 - line 61 - Non-static method HK\Formatter::formatToDate() should not be called statically
223. 29/08/16 09:44:51 (/HK/OOD/Fields/DateField.php) WARNING > code 8192 - line 26 - Non-static method HK\Formatter::format() should not be called statically
224. 29/08/16 09:44:51 (/HK/Formatter.php) WARNING > code 8192 - line 12 - Non-static method HK\Formatter::formatToDateTime() should not be called statically
225. 29/08/16 09:44:51 (/HK/Formatter.php) WARNING > code 8192 - line 61 - Non-static method HK\Formatter::formatToDate() should not be called statically
226. 29/08/16 09:44:51 (/HK/OOD/Fields/DateField.php) WARNING > code 8192 - line 26 - Non-static method HK\Formatter::format() should not be called statically
227. 29/08/16 09:44:51 (/HK/Formatter.php) WARNING > code 8192 - line 12 - Non-static method HK\Formatter::formatToDateTime() should not be called statically
228. 29/08/16 09:44:51 (/HK/Formatter.php) WARNING > code 8192 - line 61 - Non-static method HK\Formatter::formatToDate() should not be called statically
229. 29/08/16 09:44:51 (/HK/OOD/Fields/DateField.php) WARNING > code 8192 - line 26 - Non-static method HK\Formatter::format() should not be called statically
230. 29/08/16 09:44:51 (/HK/Formatter.php) WARNING > code 8192 - line 12 - Non-static method HK\Formatter::formatToDateTime() should not be called statically
231. 29/08/16 09:44:51 (/HK/Formatter.php) WARNING > code 8192 - line 61 - Non-static method HK\Formatter::formatToDate() should not be called statically
232. 29/08/16 09:44:51 (/HK/OOD/Fields/DateField.php) WARNING > code 8192 - line 26 - Non-static method HK\Formatter::format() should not be called statically
233. 29/08/16 09:44:51 (/HK/Formatter.php) WARNING > code 8192 - line 12 - Non-static method HK\Formatter::formatToDateTime() should not be called statically
234. 29/08/16 09:44:51 (/HK/Formatter.php) WARNING > code 8192 - line 61 - Non-static method HK\Formatter::formatToDate() should not be called statically
235. 29/08/16 09:44:51 (/HK/OOD/Fields/DateField.php) WARNING > code 8192 - line 26 - Non-static method HK\Formatter::format() should not be called statically
236. 29/08/16 09:44:51 (/HK/Formatter.php) WARNING > code 8192 - line 12 - Non-static method HK\Formatter::formatToDateTime() should not be called statically
237. 29/08/16 09:44:51 (/HK/Formatter.php) WARNING > code 8192 - line 61 - Non-static method HK\Formatter::formatToDate() should not be called statically
238. 29/08/16 09:44:51 (/HK/OOD/Fields/DateField.php) WARNING > code 8192 - line 26 - Non-static method HK\Formatter::format() should not be called statically
239. 29/08/16 09:44:51 (/HK/Formatter.php) WARNING > code 8192 - line 12 - Non-static method HK\Formatter::formatToDateTime() should not be called statically
240. 29/08/16 09:44:51 (/HK/Formatter.php) WARNING > code 8192 - line 61 - Non-static method HK\Formatter::formatToDate() should not be called statically
241. 29/08/16 09:44:51 (/HK/OOD/Fields/DateField.php) WARNING > code 8192 - line 26 - Non-static method HK\Formatter::format() should not be called statically
242. 29/08/16 09:44:51 (/HK/Formatter.php) WARNING > code 8192 - line 12 - Non-static method HK\Formatter::formatToDateTime() should not be called statically
243. 29/08/16 09:44:51 (/HK/Formatter.php) WARNING > code 8192 - line 61 - Non-static method HK\Formatter::formatToDate() should not be called statically
244. 29/08/16 09:45:02 (/HK/OOD/Fields/DateField.php) WARNING > code 8192 - line 26 - Non-static method HK\Formatter::format() should not be called statically
245. 29/08/16 09:45:02 (/HK/Formatter.php) WARNING > code 8192 - line 12 - Non-static method HK\Formatter::formatToDateTime() should not be called statically
246. 29/08/16 09:45:02 (/HK/Formatter.php) WARNING > code 8192 - line 61 - Non-static method HK\Formatter::formatToDate() should not be called statically
247. 29/08/16 09:45:02 (/HK/OOD/Fields/DateField.php) WARNING > code 8192 - line 26 - Non-static method HK\Formatter::format() should not be called statically
248. 29/08/16 09:45:02 (/HK/Formatter.php) WARNING > code 8192 - line 12 - Non-static method HK\Formatter::formatToDateTime() should not be called statically
249. 29/08/16 09:45:02 (/HK/Formatter.php) WARNING > code 8192 - line 61 - Non-static method HK\Formatter::formatToDate() should not be called statically
250. 29/08/16 09:45:02 (/HK/OOD/Fields/DateField.php) WARNING > code 8192 - line 26 - Non-static method HK\Formatter::format() should not be called statically
251. 29/08/16 09:45:02 (/HK/Formatter.php) WARNING > code 8192 - line 12 - Non-static method HK\Formatter::formatToDateTime() should not be called statically
252. 29/08/16 09:45:02 (/HK/Formatter.php) WARNING > code 8192 - line 61 - Non-static method HK\Formatter::formatToDate() should not be called statically
253. 29/08/16 09:45:02 (/HK/OOD/Fields/DateField.php) WARNING > code 8192 - line 26 - Non-static method HK\Formatter::format() should not be called statically
254. 29/08/16 09:45:02 (/HK/Formatter.php) WARNING > code 8192 - line 12 - Non-static method HK\Formatter::formatToDateTime() should not be called statically
255. 29/08/16 09:45:02 (/HK/Formatter.php) WARNING > code 8192 - line 61 - Non-static method HK\Formatter::formatToDate() should not be called statically
256. 29/08/16 09:45:02 (/HK/OOD/Fields/DateField.php) WARNING > code 8192 - line 26 - Non-static method HK\Formatter::format() should not be called statically
257. 29/08/16 09:45:02 (/HK/Formatter.php) WARNING > code 8192 - line 12 - Non-static method HK\Formatter::formatToDateTime() should not be called statically
258. 29/08/16 09:45:02 (/HK/Formatter.php) WARNING > code 8192 - line 61 - Non-static method HK\Formatter::formatToDate() should not be called statically
259. 29/08/16 09:45:02 (/HK/OOD/Fields/DateField.php) WARNING > code 8192 - line 26 - Non-static method HK\Formatter::format() should not be called statically
260. 29/08/16 09:45:02 (/HK/Formatter.php) WARNING > code 8192 - line 12 - Non-static method HK\Formatter::formatToDateTime() should not be called statically
261. 29/08/16 09:45:02 (/HK/Formatter.php) WARNING > code 8192 - line 61 - Non-static method HK\Formatter::formatToDate() should not be called statically
262. 29/08/16 09:45:02 (/HK/OOD/Fields/DateField.php) WARNING > code 8192 - line 26 - Non-static method HK\Formatter::format() should not be called statically
263. 29/08/16 09:45:02 (/HK/Formatter.php) WARNING > code 8192 - line 12 - Non-static method HK\Formatter::formatToDateTime() should not be called statically
264. 29/08/16 09:45:02 (/HK/Formatter.php) WARNING > code 8192 - line 61 - Non-static method HK\Formatter::formatToDate() should not be called statically
265. 29/08/16 09:45:02 (/HK/OOD/Fields/DateField.php) WARNING > code 8192 - line 26 - Non-static method HK\Formatter::format() should not be called statically
266. 29/08/16 09:45:02 (/HK/Formatter.php) WARNING > code 8192 - line 12 - Non-static method HK\Formatter::formatToDateTime() should not be called statically
267. 29/08/16 09:45:02 (/HK/Formatter.php) WARNING > code 8192 - line 61 - Non-static method HK\Formatter::formatToDate() should not be called statically
268. 29/08/16 09:45:02 (/HK/OOD/Fields/DateField.php) WARNING > code 8192 - line 26 - Non-static method HK\Formatter::format() should not be called statically
269. 29/08/16 09:45:02 (/HK/Formatter.php) WARNING > code 8192 - line 12 - Non-static method HK\Formatter::formatToDateTime() should not be called statically
270. 29/08/16 09:45:02 (/HK/Formatter.php) WARNING > code 8192 - line 61 - Non-static method HK\Formatter::formatToDate() should not be called statically
271. 29/08/16 09:45:02 (/HK/OOD/Fields/DateField.php) WARNING > code 8192 - line 26 - Non-static method HK\Formatter::format() should not be called statically
272. 29/08/16 09:45:02 (/HK/Formatter.php) WARNING > code 8192 - line 12 - Non-static method HK\Formatter::formatToDateTime() should not be called statically
273. 29/08/16 09:45:02 (/HK/Formatter.php) WARNING > code 8192 - line 61 - Non-static method HK\Formatter::formatToDate() should not be called statically
274. 29/08/16 02:45:02 (/HK/Context.php) WARNING > code 2 - line 128 - scandir(/home/khoinh/WorkSpace/Projects/nguyen-website/Http/AppGlobal/vendor/JQuery/Development/jquery-1.12.4): failed to open dir: No such file or directory
275. 29/08/16 02:45:02 (/HK/Context.php) WARNING > code 2 - line 128 - scandir(): (errno 2): No such file or directory
276. 29/08/16 02:45:02 (/HK/Context.php) WARNING > code 2 - line 129 - Invalid argument supplied for foreach()
277. 29/08/16 02:45:02 (/HK/OOD/Fields/DateField.php) WARNING > code 8192 - line 26 - Non-static method HK\Formatter::format() should not be called statically
278. 29/08/16 02:45:02 (/HK/Formatter.php) WARNING > code 8192 - line 12 - Non-static method HK\Formatter::formatToDateTime() should not be called statically
279. 29/08/16 02:45:02 (/HK/Formatter.php) WARNING > code 8192 - line 61 - Non-static method HK\Formatter::formatToDate() should not be called statically
280. 29/08/16 02:45:02 (/HK/OOD/Fields/DateField.php) WARNING > code 8192 - line 26 - Non-static method HK\Formatter::format() should not be called statically
281. 29/08/16 02:45:02 (/HK/Formatter.php) WARNING > code 8192 - line 12 - Non-static method HK\Formatter::formatToDateTime() should not be called statically
282. 29/08/16 02:45:02 (/HK/Formatter.php) WARNING > code 8192 - line 61 - Non-static method HK\Formatter::formatToDate() should not be called statically
283. 29/08/16 02:45:02 (/HK/OOD/Fields/DateField.php) WARNING > code 8192 - line 26 - Non-static method HK\Formatter::format() should not be called statically
284. 29/08/16 02:45:02 (/HK/Formatter.php) WARNING > code 8192 - line 12 - Non-static method HK\Formatter::formatToDateTime() should not be called statically
285. 29/08/16 02:45:02 (/HK/Formatter.php) WARNING > code 8192 - line 61 - Non-static method HK\Formatter::formatToDate() should not be called statically
286. 29/08/16 02:45:02 (/HK/OOD/Fields/DateField.php) WARNING > code 8192 - line 26 - Non-static method HK\Formatter::format() should not be called statically
287. 29/08/16 02:45:02 (/HK/Formatter.php) WARNING > code 8192 - line 12 - Non-static method HK\Formatter::formatToDateTime() should not be called statically
288. 29/08/16 02:45:02 (/HK/Formatter.php) WARNING > code 8192 - line 61 - Non-static method HK\Formatter::formatToDate() should not be called statically
289. 29/08/16 09:45:23 (/HK/OOD/Fields/DateField.php) WARNING > code 8192 - line 26 - Non-static method HK\Formatter::format() should not be called statically
290. 29/08/16 09:45:23 (/HK/Formatter.php) WARNING > code 8192 - line 12 - Non-static method HK\Formatter::formatToDateTime() should not be called statically
291. 29/08/16 09:45:23 (/HK/Formatter.php) WARNING > code 8192 - line 61 - Non-static method HK\Formatter::formatToDate() should not be called statically
292. 29/08/16 09:45:23 (/HK/OOD/Fields/DateField.php) WARNING > code 8192 - line 26 - Non-static method HK\Formatter::format() should not be called statically
293. 29/08/16 09:45:23 (/HK/Formatter.php) WARNING > code 8192 - line 12 - Non-static method HK\Formatter::formatToDateTime() should not be called statically
294. 29/08/16 09:45:23 (/HK/Formatter.php) WARNING > code 8192 - line 61 - Non-static method HK\Formatter::formatToDate() should not be called statically
295. 29/08/16 09:45:23 (/HK/OOD/Fields/DateField.php) WARNING > code 8192 - line 26 - Non-static method HK\Formatter::format() should not be called statically
296. 29/08/16 09:45:23 (/HK/Formatter.php) WARNING > code 8192 - line 12 - Non-static method HK\Formatter::formatToDateTime() should not be called statically
297. 29/08/16 09:45:23 (/HK/Formatter.php) WARNING > code 8192 - line 61 - Non-static method HK\Formatter::formatToDate() should not be called statically
298. 29/08/16 09:45:23 (/HK/OOD/Fields/DateField.php) WARNING > code 8192 - line 26 - Non-static method HK\Formatter::format() should not be called statically
299. 29/08/16 09:45:23 (/HK/Formatter.php) WARNING > code 8192 - line 12 - Non-static method HK\Formatter::formatToDateTime() should not be called statically
300. 29/08/16 09:45:23 (/HK/Formatter.php) WARNING > code 8192 - line 61 - Non-static method HK\Formatter::formatToDate() should not be called statically
301. 29/08/16 09:45:23 (/HK/OOD/Fields/DateField.php) WARNING > code 8192 - line 26 - Non-static method HK\Formatter::format() should not be called statically
302. 29/08/16 09:45:23 (/HK/Formatter.php) WARNING > code 8192 - line 12 - Non-static method HK\Formatter::formatToDateTime() should not be called statically
303. 29/08/16 09:45:23 (/HK/Formatter.php) WARNING > code 8192 - line 61 - Non-static method HK\Formatter::formatToDate() should not be called statically
304. 29/08/16 09:45:23 (/HK/OOD/Fields/DateField.php) WARNING > code 8192 - line 26 - Non-static method HK\Formatter::format() should not be called statically
305. 29/08/16 09:45:23 (/HK/Formatter.php) WARNING > code 8192 - line 12 - Non-static method HK\Formatter::formatToDateTime() should not be called statically
306. 29/08/16 09:45:23 (/HK/Formatter.php) WARNING > code 8192 - line 61 - Non-static method HK\Formatter::formatToDate() should not be called statically
307. 29/08/16 09:45:23 (/HK/OOD/Fields/DateField.php) WARNING > code 8192 - line 26 - Non-static method HK\Formatter::format() should not be called statically
308. 29/08/16 09:45:23 (/HK/Formatter.php) WARNING > code 8192 - line 12 - Non-static method HK\Formatter::formatToDateTime() should not be called statically
309. 29/08/16 09:45:23 (/HK/Formatter.php) WARNING > code 8192 - line 61 - Non-static method HK\Formatter::formatToDate() should not be called statically
310. 29/08/16 09:45:23 (/HK/OOD/Fields/DateField.php) WARNING > code 8192 - line 26 - Non-static method HK\Formatter::format() should not be called statically
311. 29/08/16 09:45:23 (/HK/Formatter.php) WARNING > code 8192 - line 12 - Non-static method HK\Formatter::formatToDateTime() should not be called statically
312. 29/08/16 09:45:23 (/HK/Formatter.php) WARNING > code 8192 - line 61 - Non-static method HK\Formatter::formatToDate() should not be called statically
313. 29/08/16 09:45:23 (/HK/OOD/Fields/DateField.php) WARNING > code 8192 - line 26 - Non-static method HK\Formatter::format() should not be called statically
314. 29/08/16 09:45:23 (/HK/Formatter.php) WARNING > code 8192 - line 12 - Non-static method HK\Formatter::formatToDateTime() should not be called statically
315. 29/08/16 09:45:23 (/HK/Formatter.php) WARNING > code 8192 - line 61 - Non-static method HK\Formatter::formatToDate() should not be called statically
316. 29/08/16 09:45:23 (/HK/OOD/Fields/DateField.php) WARNING > code 8192 - line 26 - Non-static method HK\Formatter::format() should not be called statically
317. 29/08/16 09:45:23 (/HK/Formatter.php) WARNING > code 8192 - line 12 - Non-static method HK\Formatter::formatToDateTime() should not be called statically
318. 29/08/16 09:45:23 (/HK/Formatter.php) WARNING > code 8192 - line 61 - Non-static method HK\Formatter::formatToDate() should not be called statically
319. 29/08/16 02:45:23 (/HK/Context.php) WARNING > code 2 - line 129 - scandir(/home/khoinh/WorkSpace/Projects/nguyen-website/Http/AppGlobal/vendor/JQuery/Development/jquery-1.12.4): failed to open dir: No such file or directory
320. 29/08/16 02:45:23 (/HK/Context.php) WARNING > code 2 - line 129 - scandir(): (errno 2): No such file or directory
321. 29/08/16 02:45:23 (/HK/Context.php) WARNING > code 2 - line 130 - Invalid argument supplied for foreach()
322. 29/08/16 02:45:23 (/HK/OOD/Fields/DateField.php) WARNING > code 8192 - line 26 - Non-static method HK\Formatter::format() should not be called statically
323. 29/08/16 02:45:23 (/HK/Formatter.php) WARNING > code 8192 - line 12 - Non-static method HK\Formatter::formatToDateTime() should not be called statically
324. 29/08/16 02:45:23 (/HK/Formatter.php) WARNING > code 8192 - line 61 - Non-static method HK\Formatter::formatToDate() should not be called statically
325. 29/08/16 02:45:23 (/HK/OOD/Fields/DateField.php) WARNING > code 8192 - line 26 - Non-static method HK\Formatter::format() should not be called statically
326. 29/08/16 02:45:23 (/HK/Formatter.php) WARNING > code 8192 - line 12 - Non-static method HK\Formatter::formatToDateTime() should not be called statically
327. 29/08/16 02:45:23 (/HK/Formatter.php) WARNING > code 8192 - line 61 - Non-static method HK\Formatter::formatToDate() should not be called statically
328. 29/08/16 02:45:23 (/HK/OOD/Fields/DateField.php) WARNING > code 8192 - line 26 - Non-static method HK\Formatter::format() should not be called statically
329. 29/08/16 02:45:23 (/HK/Formatter.php) WARNING > code 8192 - line 12 - Non-static method HK\Formatter::formatToDateTime() should not be called statically
330. 29/08/16 02:45:23 (/HK/Formatter.php) WARNING > code 8192 - line 61 - Non-static method HK\Formatter::formatToDate() should not be called statically
331. 29/08/16 02:45:23 (/HK/OOD/Fields/DateField.php) WARNING > code 8192 - line 26 - Non-static method HK\Formatter::format() should not be called statically
332. 29/08/16 02:45:23 (/HK/Formatter.php) WARNING > code 8192 - line 12 - Non-static method HK\Formatter::formatToDateTime() should not be called statically
333. 29/08/16 02:45:23 (/HK/Formatter.php) WARNING > code 8192 - line 61 - Non-static method HK\Formatter::formatToDate() should not be called statically
334. 29/08/16 09:46:20 (/HK/OOD/Fields/DateField.php) WARNING > code 8192 - line 26 - Non-static method HK\Formatter::format() should not be called statically
335. 29/08/16 09:46:20 (/HK/Formatter.php) WARNING > code 8192 - line 12 - Non-static method HK\Formatter::formatToDateTime() should not be called statically
336. 29/08/16 09:46:20 (/HK/Formatter.php) WARNING > code 8192 - line 61 - Non-static method HK\Formatter::formatToDate() should not be called statically
337. 29/08/16 09:46:20 (/HK/OOD/Fields/DateField.php) WARNING > code 8192 - line 26 - Non-static method HK\Formatter::format() should not be called statically
338. 29/08/16 09:46:20 (/HK/Formatter.php) WARNING > code 8192 - line 12 - Non-static method HK\Formatter::formatToDateTime() should not be called statically
339. 29/08/16 09:46:20 (/HK/Formatter.php) WARNING > code 8192 - line 61 - Non-static method HK\Formatter::formatToDate() should not be called statically
340. 29/08/16 09:46:20 (/HK/OOD/Fields/DateField.php) WARNING > code 8192 - line 26 - Non-static method HK\Formatter::format() should not be called statically
341. 29/08/16 09:46:20 (/HK/Formatter.php) WARNING > code 8192 - line 12 - Non-static method HK\Formatter::formatToDateTime() should not be called statically
342. 29/08/16 09:46:20 (/HK/Formatter.php) WARNING > code 8192 - line 61 - Non-static method HK\Formatter::formatToDate() should not be called statically
343. 29/08/16 09:46:20 (/HK/OOD/Fields/DateField.php) WARNING > code 8192 - line 26 - Non-static method HK\Formatter::format() should not be called statically
344. 29/08/16 09:46:20 (/HK/Formatter.php) WARNING > code 8192 - line 12 - Non-static method HK\Formatter::formatToDateTime() should not be called statically
345. 29/08/16 09:46:20 (/HK/Formatter.php) WARNING > code 8192 - line 61 - Non-static method HK\Formatter::formatToDate() should not be called statically
346. 29/08/16 09:46:20 (/HK/OOD/Fields/DateField.php) WARNING > code 8192 - line 26 - Non-static method HK\Formatter::format() should not be called statically
347. 29/08/16 09:46:20 (/HK/Formatter.php) WARNING > code 8192 - line 12 - Non-static method HK\Formatter::formatToDateTime() should not be called statically
348. 29/08/16 09:46:20 (/HK/Formatter.php) WARNING > code 8192 - line 61 - Non-static method HK\Formatter::formatToDate() should not be called statically
349. 29/08/16 09:46:20 (/HK/OOD/Fields/DateField.php) WARNING > code 8192 - line 26 - Non-static method HK\Formatter::format() should not be called statically
350. 29/08/16 09:46:20 (/HK/Formatter.php) WARNING > code 8192 - line 12 - Non-static method HK\Formatter::formatToDateTime() should not be called statically
351. 29/08/16 09:46:20 (/HK/Formatter.php) WARNING > code 8192 - line 61 - Non-static method HK\Formatter::formatToDate() should not be called statically
352. 29/08/16 09:46:20 (/HK/OOD/Fields/DateField.php) WARNING > code 8192 - line 26 - Non-static method HK\Formatter::format() should not be called statically
353. 29/08/16 09:46:20 (/HK/Formatter.php) WARNING > code 8192 - line 12 - Non-static method HK\Formatter::formatToDateTime() should not be called statically
354. 29/08/16 09:46:20 (/HK/Formatter.php) WARNING > code 8192 - line 61 - Non-static method HK\Formatter::formatToDate() should not be called statically
355. 29/08/16 09:46:20 (/HK/OOD/Fields/DateField.php) WARNING > code 8192 - line 26 - Non-static method HK\Formatter::format() should not be called statically
356. 29/08/16 09:46:20 (/HK/Formatter.php) WARNING > code 8192 - line 12 - Non-static method HK\Formatter::formatToDateTime() should not be called statically
357. 29/08/16 09:46:20 (/HK/Formatter.php) WARNING > code 8192 - line 61 - Non-static method HK\Formatter::formatToDate() should not be called statically
358. 29/08/16 09:46:20 (/HK/OOD/Fields/DateField.php) WARNING > code 8192 - line 26 - Non-static method HK\Formatter::format() should not be called statically
359. 29/08/16 09:46:20 (/HK/Formatter.php) WARNING > code 8192 - line 12 - Non-static method HK\Formatter::formatToDateTime() should not be called statically
360. 29/08/16 09:46:20 (/HK/Formatter.php) WARNING > code 8192 - line 61 - Non-static method HK\Formatter::formatToDate() should not be called statically
361. 29/08/16 09:46:20 (/HK/OOD/Fields/DateField.php) WARNING > code 8192 - line 26 - Non-static method HK\Formatter::format() should not be called statically
362. 29/08/16 09:46:20 (/HK/Formatter.php) WARNING > code 8192 - line 12 - Non-static method HK\Formatter::formatToDateTime() should not be called statically
363. 29/08/16 09:46:20 (/HK/Formatter.php) WARNING > code 8192 - line 61 - Non-static method HK\Formatter::formatToDate() should not be called statically
364. 29/08/16 02:46:20 (/HK/Context.php) WARNING > code 2 - line 129 - scandir(/home/khoinh/WorkSpace/Projects/nguyen-website/Http/AppGlobal/vendor/JQuery/Development/jquery-1.12.4): failed to open dir: No such file or directory
365. 29/08/16 02:46:20 (/HK/Context.php) WARNING > code 2 - line 129 - scandir(): (errno 2): No such file or directory
366. 29/08/16 02:46:20 (/HK/Context.php) WARNING > code 2 - line 130 - Invalid argument supplied for foreach()
367. 29/08/16 02:46:20 (/HK/OOD/Fields/DateField.php) WARNING > code 8192 - line 26 - Non-static method HK\Formatter::format() should not be called statically
368. 29/08/16 02:46:20 (/HK/Formatter.php) WARNING > code 8192 - line 12 - Non-static method HK\Formatter::formatToDateTime() should not be called statically
369. 29/08/16 02:46:20 (/HK/Formatter.php) WARNING > code 8192 - line 61 - Non-static method HK\Formatter::formatToDate() should not be called statically
370. 29/08/16 02:46:20 (/HK/OOD/Fields/DateField.php) WARNING > code 8192 - line 26 - Non-static method HK\Formatter::format() should not be called statically
371. 29/08/16 02:46:20 (/HK/Formatter.php) WARNING > code 8192 - line 12 - Non-static method HK\Formatter::formatToDateTime() should not be called statically
372. 29/08/16 02:46:20 (/HK/Formatter.php) WARNING > code 8192 - line 61 - Non-static method HK\Formatter::formatToDate() should not be called statically
373. 29/08/16 02:46:20 (/HK/OOD/Fields/DateField.php) WARNING > code 8192 - line 26 - Non-static method HK\Formatter::format() should not be called statically
374. 29/08/16 02:46:20 (/HK/Formatter.php) WARNING > code 8192 - line 12 - Non-static method HK\Formatter::formatToDateTime() should not be called statically
375. 29/08/16 02:46:20 (/HK/Formatter.php) WARNING > code 8192 - line 61 - Non-static method HK\Formatter::formatToDate() should not be called statically
376. 29/08/16 02:46:20 (/HK/OOD/Fields/DateField.php) WARNING > code 8192 - line 26 - Non-static method HK\Formatter::format() should not be called statically
377. 29/08/16 02:46:20 (/HK/Formatter.php) WARNING > code 8192 - line 12 - Non-static method HK\Formatter::formatToDateTime() should not be called statically
378. 29/08/16 02:46:20 (/HK/Formatter.php) WARNING > code 8192 - line 61 - Non-static method HK\Formatter::formatToDate() should not be called statically
379. 29/08/16 09:46:37 (/HK/OOD/Fields/DateField.php) WARNING > code 8192 - line 26 - Non-static method HK\Formatter::format() should not be called statically
380. 29/08/16 09:46:37 (/HK/Formatter.php) WARNING > code 8192 - line 12 - Non-static method HK\Formatter::formatToDateTime() should not be called statically
381. 29/08/16 09:46:37 (/HK/Formatter.php) WARNING > code 8192 - line 61 - Non-static method HK\Formatter::formatToDate() should not be called statically
382. 29/08/16 09:46:37 (/HK/OOD/Fields/DateField.php) WARNING > code 8192 - line 26 - Non-static method HK\Formatter::format() should not be called statically
383. 29/08/16 09:46:37 (/HK/Formatter.php) WARNING > code 8192 - line 12 - Non-static method HK\Formatter::formatToDateTime() should not be called statically
384. 29/08/16 09:46:37 (/HK/Formatter.php) WARNING > code 8192 - line 61 - Non-static method HK\Formatter::formatToDate() should not be called statically
385. 29/08/16 09:46:37 (/HK/OOD/Fields/DateField.php) WARNING > code 8192 - line 26 - Non-static method HK\Formatter::format() should not be called statically
386. 29/08/16 09:46:37 (/HK/Formatter.php) WARNING > code 8192 - line 12 - Non-static method HK\Formatter::formatToDateTime() should not be called statically
387. 29/08/16 09:46:37 (/HK/Formatter.php) WARNING > code 8192 - line 61 - Non-static method HK\Formatter::formatToDate() should not be called statically
388. 29/08/16 09:46:37 (/HK/OOD/Fields/DateField.php) WARNING > code 8192 - line 26 - Non-static method HK\Formatter::format() should not be called statically
389. 29/08/16 09:46:37 (/HK/Formatter.php) WARNING > code 8192 - line 12 - Non-static method HK\Formatter::formatToDateTime() should not be called statically
390. 29/08/16 09:46:37 (/HK/Formatter.php) WARNING > code 8192 - line 61 - Non-static method HK\Formatter::formatToDate() should not be called statically
391. 29/08/16 09:46:37 (/HK/OOD/Fields/DateField.php) WARNING > code 8192 - line 26 - Non-static method HK\Formatter::format() should not be called statically
392. 29/08/16 09:46:37 (/HK/Formatter.php) WARNING > code 8192 - line 12 - Non-static method HK\Formatter::formatToDateTime() should not be called statically
393. 29/08/16 09:46:37 (/HK/Formatter.php) WARNING > code 8192 - line 61 - Non-static method HK\Formatter::formatToDate() should not be called statically
394. 29/08/16 09:46:37 (/HK/OOD/Fields/DateField.php) WARNING > code 8192 - line 26 - Non-static method HK\Formatter::format() should not be called statically
395. 29/08/16 09:46:37 (/HK/Formatter.php) WARNING > code 8192 - line 12 - Non-static method HK\Formatter::formatToDateTime() should not be called statically
396. 29/08/16 09:46:37 (/HK/Formatter.php) WARNING > code 8192 - line 61 - Non-static method HK\Formatter::formatToDate() should not be called statically
397. 29/08/16 09:46:37 (/HK/OOD/Fields/DateField.php) WARNING > code 8192 - line 26 - Non-static method HK\Formatter::format() should not be called statically
398. 29/08/16 09:46:37 (/HK/Formatter.php) WARNING > code 8192 - line 12 - Non-static method HK\Formatter::formatToDateTime() should not be called statically
399. 29/08/16 09:46:37 (/HK/Formatter.php) WARNING > code 8192 - line 61 - Non-static method HK\Formatter::formatToDate() should not be called statically
400. 29/08/16 09:46:37 (/HK/OOD/Fields/DateField.php) WARNING > code 8192 - line 26 - Non-static method HK\Formatter::format() should not be called statically
401. 29/08/16 09:46:37 (/HK/Formatter.php) WARNING > code 8192 - line 12 - Non-static method HK\Formatter::formatToDateTime() should not be called statically
402. 29/08/16 09:46:37 (/HK/Formatter.php) WARNING > code 8192 - line 61 - Non-static method HK\Formatter::formatToDate() should not be called statically
403. 29/08/16 09:46:37 (/HK/OOD/Fields/DateField.php) WARNING > code 8192 - line 26 - Non-static method HK\Formatter::format() should not be called statically
404. 29/08/16 09:46:37 (/HK/Formatter.php) WARNING > code 8192 - line 12 - Non-static method HK\Formatter::formatToDateTime() should not be called statically
405. 29/08/16 09:46:37 (/HK/Formatter.php) WARNING > code 8192 - line 61 - Non-static method HK\Formatter::formatToDate() should not be called statically
406. 29/08/16 09:46:37 (/HK/OOD/Fields/DateField.php) WARNING > code 8192 - line 26 - Non-static method HK\Formatter::format() should not be called statically
407. 29/08/16 09:46:37 (/HK/Formatter.php) WARNING > code 8192 - line 12 - Non-static method HK\Formatter::formatToDateTime() should not be called statically
408. 29/08/16 09:46:37 (/HK/Formatter.php) WARNING > code 8192 - line 61 - Non-static method HK\Formatter::formatToDate() should not be called statically
409. 29/08/16 02:46:37 (/HK/Context.php) WARNING > code 2 - line 129 - scandir(/home/khoinh/WorkSpace/Projects/nguyen-website/Http/AppGlobal/vendor/JQuery/Development/jquery-1.12.4): failed to open dir: No such file or directory
410. 29/08/16 02:46:37 (/HK/Context.php) WARNING > code 2 - line 129 - scandir(): (errno 2): No such file or directory
411. 29/08/16 02:46:37 (/HK/Context.php) WARNING > code 2 - line 130 - Invalid argument supplied for foreach()
412. 29/08/16 02:46:37 (/HK/OOD/Fields/DateField.php) WARNING > code 8192 - line 26 - Non-static method HK\Formatter::format() should not be called statically
413. 29/08/16 02:46:37 (/HK/Formatter.php) WARNING > code 8192 - line 12 - Non-static method HK\Formatter::formatToDateTime() should not be called statically
414. 29/08/16 02:46:37 (/HK/Formatter.php) WARNING > code 8192 - line 61 - Non-static method HK\Formatter::formatToDate() should not be called statically
415. 29/08/16 02:46:37 (/HK/OOD/Fields/DateField.php) WARNING > code 8192 - line 26 - Non-static method HK\Formatter::format() should not be called statically
416. 29/08/16 02:46:37 (/HK/Formatter.php) WARNING > code 8192 - line 12 - Non-static method HK\Formatter::formatToDateTime() should not be called statically
417. 29/08/16 02:46:37 (/HK/Formatter.php) WARNING > code 8192 - line 61 - Non-static method HK\Formatter::formatToDate() should not be called statically
418. 29/08/16 02:46:37 (/HK/OOD/Fields/DateField.php) WARNING > code 8192 - line 26 - Non-static method HK\Formatter::format() should not be called statically
419. 29/08/16 02:46:37 (/HK/Formatter.php) WARNING > code 8192 - line 12 - Non-static method HK\Formatter::formatToDateTime() should not be called statically
420. 29/08/16 02:46:37 (/HK/Formatter.php) WARNING > code 8192 - line 61 - Non-static method HK\Formatter::formatToDate() should not be called statically
421. 29/08/16 02:46:37 (/HK/OOD/Fields/DateField.php) WARNING > code 8192 - line 26 - Non-static method HK\Formatter::format() should not be called statically
422. 29/08/16 02:46:38 (/HK/Formatter.php) WARNING > code 8192 - line 12 - Non-static method HK\Formatter::formatToDateTime() should not be called statically
423. 29/08/16 02:46:38 (/HK/Formatter.php) WARNING > code 8192 - line 61 - Non-static method HK\Formatter::formatToDate() should not be called statically
424. 29/08/16 09:47:08 (/HK/OOD/Fields/DateField.php) WARNING > code 8192 - line 26 - Non-static method HK\Formatter::format() should not be called statically
425. 29/08/16 09:47:08 (/HK/Formatter.php) WARNING > code 8192 - line 12 - Non-static method HK\Formatter::formatToDateTime() should not be called statically
426. 29/08/16 09:47:08 (/HK/Formatter.php) WARNING > code 8192 - line 61 - Non-static method HK\Formatter::formatToDate() should not be called statically
427. 29/08/16 09:47:08 (/HK/OOD/Fields/DateField.php) WARNING > code 8192 - line 26 - Non-static method HK\Formatter::format() should not be called statically
428. 29/08/16 09:47:08 (/HK/Formatter.php) WARNING > code 8192 - line 12 - Non-static method HK\Formatter::formatToDateTime() should not be called statically
429. 29/08/16 09:47:08 (/HK/Formatter.php) WARNING > code 8192 - line 61 - Non-static method HK\Formatter::formatToDate() should not be called statically
430. 29/08/16 09:47:08 (/HK/OOD/Fields/DateField.php) WARNING > code 8192 - line 26 - Non-static method HK\Formatter::format() should not be called statically
431. 29/08/16 09:47:08 (/HK/Formatter.php) WARNING > code 8192 - line 12 - Non-static method HK\Formatter::formatToDateTime() should not be called statically
432. 29/08/16 09:47:08 (/HK/Formatter.php) WARNING > code 8192 - line 61 - Non-static method HK\Formatter::formatToDate() should not be called statically
433. 29/08/16 09:47:08 (/HK/OOD/Fields/DateField.php) WARNING > code 8192 - line 26 - Non-static method HK\Formatter::format() should not be called statically
434. 29/08/16 09:47:08 (/HK/Formatter.php) WARNING > code 8192 - line 12 - Non-static method HK\Formatter::formatToDateTime() should not be called statically
435. 29/08/16 09:47:08 (/HK/Formatter.php) WARNING > code 8192 - line 61 - Non-static method HK\Formatter::formatToDate() should not be called statically
436. 29/08/16 09:47:08 (/HK/OOD/Fields/DateField.php) WARNING > code 8192 - line 26 - Non-static method HK\Formatter::format() should not be called statically
437. 29/08/16 09:47:08 (/HK/Formatter.php) WARNING > code 8192 - line 12 - Non-static method HK\Formatter::formatToDateTime() should not be called statically
438. 29/08/16 09:47:08 (/HK/Formatter.php) WARNING > code 8192 - line 61 - Non-static method HK\Formatter::formatToDate() should not be called statically
439. 29/08/16 09:47:08 (/HK/OOD/Fields/DateField.php) WARNING > code 8192 - line 26 - Non-static method HK\Formatter::format() should not be called statically
440. 29/08/16 09:47:08 (/HK/Formatter.php) WARNING > code 8192 - line 12 - Non-static method HK\Formatter::formatToDateTime() should not be called statically
441. 29/08/16 09:47:08 (/HK/Formatter.php) WARNING > code 8192 - line 61 - Non-static method HK\Formatter::formatToDate() should not be called statically
442. 29/08/16 09:47:08 (/HK/OOD/Fields/DateField.php) WARNING > code 8192 - line 26 - Non-static method HK\Formatter::format() should not be called statically
443. 29/08/16 09:47:08 (/HK/Formatter.php) WARNING > code 8192 - line 12 - Non-static method HK\Formatter::formatToDateTime() should not be called statically
444. 29/08/16 09:47:08 (/HK/Formatter.php) WARNING > code 8192 - line 61 - Non-static method HK\Formatter::formatToDate() should not be called statically
445. 29/08/16 09:47:08 (/HK/OOD/Fields/DateField.php) WARNING > code 8192 - line 26 - Non-static method HK\Formatter::format() should not be called statically
446. 29/08/16 09:47:08 (/HK/Formatter.php) WARNING > code 8192 - line 12 - Non-static method HK\Formatter::formatToDateTime() should not be called statically
447. 29/08/16 09:47:08 (/HK/Formatter.php) WARNING > code 8192 - line 61 - Non-static method HK\Formatter::formatToDate() should not be called statically
448. 29/08/16 09:47:08 (/HK/OOD/Fields/DateField.php) WARNING > code 8192 - line 26 - Non-static method HK\Formatter::format() should not be called statically
449. 29/08/16 09:47:08 (/HK/Formatter.php) WARNING > code 8192 - line 12 - Non-static method HK\Formatter::formatToDateTime() should not be called statically
450. 29/08/16 09:47:08 (/HK/Formatter.php) WARNING > code 8192 - line 61 - Non-static method HK\Formatter::formatToDate() should not be called statically
451. 29/08/16 09:47:08 (/HK/OOD/Fields/DateField.php) WARNING > code 8192 - line 26 - Non-static method HK\Formatter::format() should not be called statically
452. 29/08/16 09:47:08 (/HK/Formatter.php) WARNING > code 8192 - line 12 - Non-static method HK\Formatter::formatToDateTime() should not be called statically
453. 29/08/16 09:47:08 (/HK/Formatter.php) WARNING > code 8192 - line 61 - Non-static method HK\Formatter::formatToDate() should not be called statically
454. 29/08/16 02:47:08 (/HK/Context.php) WARNING > code 2 - line 130 - scandir(/home/khoinh/WorkSpace/Projects/nguyen-website/Http/AppGlobal/vendor/JQuery/Development/jquery-1.12.4): failed to open dir: No such file or directory
455. 29/08/16 02:47:08 (/HK/Context.php) WARNING > code 2 - line 130 - scandir(): (errno 2): No such file or directory
456. 29/08/16 02:47:08 (/HK/Context.php) WARNING > code 2 - line 131 - Invalid argument supplied for foreach()
457. 29/08/16 02:47:08 (/HK/OOD/Fields/DateField.php) WARNING > code 8192 - line 26 - Non-static method HK\Formatter::format() should not be called statically
458. 29/08/16 02:47:08 (/HK/Formatter.php) WARNING > code 8192 - line 12 - Non-static method HK\Formatter::formatToDateTime() should not be called statically
459. 29/08/16 02:47:08 (/HK/Formatter.php) WARNING > code 8192 - line 61 - Non-static method HK\Formatter::formatToDate() should not be called statically
460. 29/08/16 02:47:08 (/HK/OOD/Fields/DateField.php) WARNING > code 8192 - line 26 - Non-static method HK\Formatter::format() should not be called statically
461. 29/08/16 02:47:08 (/HK/Formatter.php) WARNING > code 8192 - line 12 - Non-static method HK\Formatter::formatToDateTime() should not be called statically
462. 29/08/16 02:47:08 (/HK/Formatter.php) WARNING > code 8192 - line 61 - Non-static method HK\Formatter::formatToDate() should not be called statically
463. 29/08/16 02:47:08 (/HK/OOD/Fields/DateField.php) WARNING > code 8192 - line 26 - Non-static method HK\Formatter::format() should not be called statically
464. 29/08/16 02:47:08 (/HK/Formatter.php) WARNING > code 8192 - line 12 - Non-static method HK\Formatter::formatToDateTime() should not be called statically
465. 29/08/16 02:47:08 (/HK/Formatter.php) WARNING > code 8192 - line 61 - Non-static method HK\Formatter::formatToDate() should not be called statically
466. 29/08/16 02:47:08 (/HK/OOD/Fields/DateField.php) WARNING > code 8192 - line 26 - Non-static method HK\Formatter::format() should not be called statically
467. 29/08/16 02:47:08 (/HK/Formatter.php) WARNING > code 8192 - line 12 - Non-static method HK\Formatter::formatToDateTime() should not be called statically
468. 29/08/16 02:47:08 (/HK/Formatter.php) WARNING > code 8192 - line 61 - Non-static method HK\Formatter::formatToDate() should not be called statically
469. 29/08/16 09:48:42 (/HK/OOD/Fields/DateField.php) WARNING > code 8192 - line 26 - Non-static method HK\Formatter::format() should not be called statically
470. 29/08/16 09:48:42 (/HK/Formatter.php) WARNING > code 8192 - line 12 - Non-static method HK\Formatter::formatToDateTime() should not be called statically
471. 29/08/16 09:48:42 (/HK/Formatter.php) WARNING > code 8192 - line 61 - Non-static method HK\Formatter::formatToDate() should not be called statically
472. 29/08/16 09:48:42 (/HK/OOD/Fields/DateField.php) WARNING > code 8192 - line 26 - Non-static method HK\Formatter::format() should not be called statically
473. 29/08/16 09:48:42 (/HK/Formatter.php) WARNING > code 8192 - line 12 - Non-static method HK\Formatter::formatToDateTime() should not be called statically
474. 29/08/16 09:48:42 (/HK/Formatter.php) WARNING > code 8192 - line 61 - Non-static method HK\Formatter::formatToDate() should not be called statically
475. 29/08/16 09:48:42 (/HK/OOD/Fields/DateField.php) WARNING > code 8192 - line 26 - Non-static method HK\Formatter::format() should not be called statically
476. 29/08/16 09:48:42 (/HK/Formatter.php) WARNING > code 8192 - line 12 - Non-static method HK\Formatter::formatToDateTime() should not be called statically
477. 29/08/16 09:48:42 (/HK/Formatter.php) WARNING > code 8192 - line 61 - Non-static method HK\Formatter::formatToDate() should not be called statically
478. 29/08/16 09:48:42 (/HK/OOD/Fields/DateField.php) WARNING > code 8192 - line 26 - Non-static method HK\Formatter::format() should not be called statically
479. 29/08/16 09:48:42 (/HK/Formatter.php) WARNING > code 8192 - line 12 - Non-static method HK\Formatter::formatToDateTime() should not be called statically
480. 29/08/16 09:48:42 (/HK/Formatter.php) WARNING > code 8192 - line 61 - Non-static method HK\Formatter::formatToDate() should not be called statically
481. 29/08/16 09:48:42 (/HK/OOD/Fields/DateField.php) WARNING > code 8192 - line 26 - Non-static method HK\Formatter::format() should not be called statically
482. 29/08/16 09:48:42 (/HK/Formatter.php) WARNING > code 8192 - line 12 - Non-static method HK\Formatter::formatToDateTime() should not be called statically
483. 29/08/16 09:48:42 (/HK/Formatter.php) WARNING > code 8192 - line 61 - Non-static method HK\Formatter::formatToDate() should not be called statically
484. 29/08/16 09:48:42 (/HK/OOD/Fields/DateField.php) WARNING > code 8192 - line 26 - Non-static method HK\Formatter::format() should not be called statically
485. 29/08/16 09:48:42 (/HK/Formatter.php) WARNING > code 8192 - line 12 - Non-static method HK\Formatter::formatToDateTime() should not be called statically
486. 29/08/16 09:48:42 (/HK/Formatter.php) WARNING > code 8192 - line 61 - Non-static method HK\Formatter::formatToDate() should not be called statically
487. 29/08/16 09:48:42 (/HK/OOD/Fields/DateField.php) WARNING > code 8192 - line 26 - Non-static method HK\Formatter::format() should not be called statically
488. 29/08/16 09:48:42 (/HK/Formatter.php) WARNING > code 8192 - line 12 - Non-static method HK\Formatter::formatToDateTime() should not be called statically
489. 29/08/16 09:48:42 (/HK/Formatter.php) WARNING > code 8192 - line 61 - Non-static method HK\Formatter::formatToDate() should not be called statically
490. 29/08/16 09:48:42 (/HK/OOD/Fields/DateField.php) WARNING > code 8192 - line 26 - Non-static method HK\Formatter::format() should not be called statically
491. 29/08/16 09:48:42 (/HK/Formatter.php) WARNING > code 8192 - line 12 - Non-static method HK\Formatter::formatToDateTime() should not be called statically
492. 29/08/16 09:48:42 (/HK/Formatter.php) WARNING > code 8192 - line 61 - Non-static method HK\Formatter::formatToDate() should not be called statically
493. 29/08/16 09:48:42 (/HK/OOD/Fields/DateField.php) WARNING > code 8192 - line 26 - Non-static method HK\Formatter::format() should not be called statically
494. 29/08/16 09:48:42 (/HK/Formatter.php) WARNING > code 8192 - line 12 - Non-static method HK\Formatter::formatToDateTime() should not be called statically
495. 29/08/16 09:48:42 (/HK/Formatter.php) WARNING > code 8192 - line 61 - Non-static method HK\Formatter::formatToDate() should not be called statically
496. 29/08/16 09:48:42 (/HK/OOD/Fields/DateField.php) WARNING > code 8192 - line 26 - Non-static method HK\Formatter::format() should not be called statically
497. 29/08/16 09:48:42 (/HK/Formatter.php) WARNING > code 8192 - line 12 - Non-static method HK\Formatter::formatToDateTime() should not be called statically
498. 29/08/16 09:48:42 (/HK/Formatter.php) WARNING > code 8192 - line 61 - Non-static method HK\Formatter::formatToDate() should not be called statically
499. 29/08/16 02:48:42 (/HK/OOD/Fields/DateField.php) WARNING > code 8192 - line 26 - Non-static method HK\Formatter::format() should not be called statically
